<!--
  - Copyright 2021,2022 Maxime Girardet
  -
  - This file is part of Nova.
  -
  - Nova is free software: you can redistribute it and/or modify it under the terms of the GNU Affero General Public License as published by the Free Software Foundation, either version 3 of the License, or (at your option) any later version.
  -
  - Nova is distributed in the hope that it will be useful, but WITHOUT ANY WARRANTY; without even the implied warranty of MERCHANTABILITY or FITNESS FOR A PARTICULAR PURPOSE. See the GNU Affero General Public License for more details.
  -
  - You should have received a copy of the GNU Affero General Public License along with Nova. If not, see <https://www.gnu.org/licenses/agpl-3.0.html>.
  -->

<svg width="340" height="250.00000000000003" xmlns="http://www.w3.org/2000/svg" version="1.0"
     preserveAspectRatio="xMidYMid meet" color-interpolation-filters="sRGB" class="el-tooltip">
    <g>
        <title>Layer 1</title>
        <rect stroke="null" width="356" height="259" fill="#007fff" class="background" id="svg_8" y="-2.39899"
              x="-8.86792"/>
        <rect x="0" y="0" width="100%" height="100%" fill="url(#watermark)" class="watermarklayer" id="svg_9"
              transform="translate(-244 -25) translate(-171 20)"/>
        <path fill="url(#watermark)" opacity="NaN"
              d="m24.345,13.904c0.019,-0.195 0.03,-0.392 0.03,-0.591c0,-3.452 -2.798,-6.25 -6.25,-6.25c-2.679,0 -4.958,1.689 -5.847,4.059c-0.589,-0.646 -1.429,-1.059 -2.372,-1.059c-1.778,0 -3.219,1.441 -3.219,3.219c0,0.21 0.023,0.415 0.062,0.613c-2.372,0.391 -4.187,2.436 -4.187,4.918c0,2.762 2.239,5 5,5l15.875,0c2.762,0 5,-2.238 5,-5c0.001,-2.451 -1.765,-4.481 -4.092,-4.909z"
              id="svg_62"
              transform="translate(153.77358490566036,58.018867924528294) scale(0.005) translate(-153.77358490566036,-58.018867924528294)"/>
        <path fill="url(#watermark)" opacity="NaN"
              d="m24.345,13.904c0.019,-0.195 0.03,-0.392 0.03,-0.591c0,-3.452 -2.798,-6.25 -6.25,-6.25c-2.679,0 -4.958,1.689 -5.847,4.059c-0.589,-0.646 -1.429,-1.059 -2.372,-1.059c-1.778,0 -3.219,1.441 -3.219,3.219c0,0.21 0.023,0.415 0.062,0.613c-2.372,0.391 -4.187,2.436 -4.187,4.918c0,2.762 2.239,5 5,5l15.875,0c2.762,0 5,-2.238 5,-5c0.001,-2.451 -1.765,-4.481 -4.092,-4.909z"
              id="svg_63"
              transform="translate(137.16981132075472,63.30188679245282) scale(0.005) translate(-137.16981132075472,-63.30188679245282)"/>
        <path fill="url(#watermark)" opacity="NaN"
              d="m24.345,13.904c0.019,-0.195 0.03,-0.392 0.03,-0.591c0,-3.452 -2.798,-6.25 -6.25,-6.25c-2.679,0 -4.958,1.689 -5.847,4.059c-0.589,-0.646 -1.429,-1.059 -2.372,-1.059c-1.778,0 -3.219,1.441 -3.219,3.219c0,0.21 0.023,0.415 0.062,0.613c-2.372,0.391 -4.187,2.436 -4.187,4.918c0,2.762 2.239,5 5,5l15.875,0c2.762,0 5,-2.238 5,-5c0.001,-2.451 -1.765,-4.481 -4.092,-4.909z"
              id="svg_64"
              transform="translate(157.16981132075472,60.660377358490564) scale(0.005) translate(-157.16981132075472,-60.660377358490564)"/>
        <path fill="url(#watermark)" opacity="NaN"
              d="m24.345,13.904c0.019,-0.195 0.03,-0.392 0.03,-0.591c0,-3.452 -2.798,-6.25 -6.25,-6.25c-2.679,0 -4.958,1.689 -5.847,4.059c-0.589,-0.646 -1.429,-1.059 -2.372,-1.059c-1.778,0 -3.219,1.441 -3.219,3.219c0,0.21 0.023,0.415 0.062,0.613c-2.372,0.391 -4.187,2.436 -4.187,4.918c0,2.762 2.239,5 5,5l15.875,0c2.762,0 5,-2.238 5,-5c0.001,-2.451 -1.765,-4.481 -4.092,-4.909z"
              id="svg_65"
              transform="translate(157.16981132075472,60.660377358490564) scale(0.005) translate(-157.16981132075472,-60.660377358490564)"/>
        <path fill="url(#watermark)" opacity="NaN"
              d="m24.345,13.904c0.019,-0.195 0.03,-0.392 0.03,-0.591c0,-3.452 -2.798,-6.25 -6.25,-6.25c-2.679,0 -4.958,1.689 -5.847,4.059c-0.589,-0.646 -1.429,-1.059 -2.372,-1.059c-1.778,0 -3.219,1.441 -3.219,3.219c0,0.21 0.023,0.415 0.062,0.613c-2.372,0.391 -4.187,2.436 -4.187,4.918c0,2.762 2.239,5 5,5l15.875,0c2.762,0 5,-2.238 5,-5c0.001,-2.451 -1.765,-4.481 -4.092,-4.909z"
              id="svg_66"
              transform="translate(174.1509433962264,65.56603773584905) scale(0.005) translate(-174.1509433962264,-65.56603773584905)"/>
        <path fill="url(#watermark)" opacity="NaN"
              d="m24.345,13.904c0.019,-0.195 0.03,-0.392 0.03,-0.591c0,-3.452 -2.798,-6.25 -6.25,-6.25c-2.679,0 -4.958,1.689 -5.847,4.059c-0.589,-0.646 -1.429,-1.059 -2.372,-1.059c-1.778,0 -3.219,1.441 -3.219,3.219c0,0.21 0.023,0.415 0.062,0.613c-2.372,0.391 -4.187,2.436 -4.187,4.918c0,2.762 2.239,5 5,5l15.875,0c2.762,0 5,-2.238 5,-5c0.001,-2.451 -1.765,-4.481 -4.092,-4.909z"
              id="svg_67"
              transform="translate(110.37735849056605,62.54716981132075) scale(0.005) translate(-110.37735849056605,-62.54716981132075)"/>
        <path fill="url(#watermark)" opacity="NaN"
              d="m24.345,13.904c0.019,-0.195 0.03,-0.392 0.03,-0.591c0,-3.452 -2.798,-6.25 -6.25,-6.25c-2.679,0 -4.958,1.689 -5.847,4.059c-0.589,-0.646 -1.429,-1.059 -2.372,-1.059c-1.778,0 -3.219,1.441 -3.219,3.219c0,0.21 0.023,0.415 0.062,0.613c-2.372,0.391 -4.187,2.436 -4.187,4.918c0,2.762 2.239,5 5,5l15.875,0c2.762,0 5,-2.238 5,-5c0.001,-2.451 -1.765,-4.481 -4.092,-4.909z"
              id="svg_68"
              transform="translate(51.13207547169813,67.83018867924528) scale(0.005) translate(-51.13207547169813,-67.83018867924528)"/>
        <path fill="url(#watermark)" opacity="NaN"
              d="m7.562,24.812c-3.313,0 -6,-2.687 -6,-6l0,0c0.002,-2.659 1.734,-4.899 4.127,-5.684l0,0c0.083,-2.26 1.937,-4.064 4.216,-4.066l0,0c0.73,0 1.415,0.19 2.01,0.517l0,0c1.266,-2.105 3.57,-3.516 6.208,-3.517l0,0c3.947,0.002 7.157,3.155 7.248,7.079l0,0c2.362,0.804 4.062,3.034 4.064,5.671l0,0c0,3.313 -2.687,6 -6,6l0,0l-15.873,0l0,0zm16.601,-9.925c-0.511,-0.095 -0.864,-0.562 -0.815,-1.079l0,0c0.017,-0.171 0.027,-0.336 0.027,-0.497l0,0c-0.007,-2.899 -2.352,-5.245 -5.251,-5.249l0,0c-2.249,-0.002 -4.162,1.418 -4.911,3.41l0,0c-0.122,0.323 -0.406,0.564 -0.748,0.63l0,0c-0.34,0.066 -0.694,-0.052 -0.927,-0.309l0,0c-0.416,-0.453 -0.986,-0.731 -1.633,-0.731l0,0c-1.225,0.002 -2.216,0.993 -2.22,2.218l0,0c0,0.136 0.017,0.276 0.045,0.424l0,0c0.049,0.266 -0.008,0.54 -0.163,0.762l0,0c-0.155,0.223 -0.392,0.371 -0.657,0.414l0,0c-1.9,0.313 -3.352,1.949 -3.35,3.931l0,0c0.004,2.209 1.792,3.995 4.001,4.001l0,0l15.874,0c2.209,-0.006 3.994,-1.792 3.999,-4.001l0,0c0.004,-1.957 -1.41,-3.58 -3.271,-3.924l0,0"
              id="svg_69"
              transform="translate(265.47169811320754,50.0943396226415) scale(0.005) translate(-265.47169811320754,-50.0943396226415)"/>
        <path fill="url(#watermark)" opacity="NaN"
              d="m7.562,24.812c-3.313,0 -6,-2.687 -6,-6l0,0c0.002,-2.659 1.734,-4.899 4.127,-5.684l0,0c0.083,-2.26 1.937,-4.064 4.216,-4.066l0,0c0.73,0 1.415,0.19 2.01,0.517l0,0c1.266,-2.105 3.57,-3.516 6.208,-3.517l0,0c3.947,0.002 7.157,3.155 7.248,7.079l0,0c2.362,0.804 4.062,3.034 4.064,5.671l0,0c0,3.313 -2.687,6 -6,6l0,0l-15.873,0l0,0zm16.601,-9.925c-0.511,-0.095 -0.864,-0.562 -0.815,-1.079l0,0c0.017,-0.171 0.027,-0.336 0.027,-0.497l0,0c-0.007,-2.899 -2.352,-5.245 -5.251,-5.249l0,0c-2.249,-0.002 -4.162,1.418 -4.911,3.41l0,0c-0.122,0.323 -0.406,0.564 -0.748,0.63l0,0c-0.34,0.066 -0.694,-0.052 -0.927,-0.309l0,0c-0.416,-0.453 -0.986,-0.731 -1.633,-0.731l0,0c-1.225,0.002 -2.216,0.993 -2.22,2.218l0,0c0,0.136 0.017,0.276 0.045,0.424l0,0c0.049,0.266 -0.008,0.54 -0.163,0.762l0,0c-0.155,0.223 -0.392,0.371 -0.657,0.414l0,0c-1.9,0.313 -3.352,1.949 -3.35,3.931l0,0c0.004,2.209 1.792,3.995 4.001,4.001l0,0l15.874,0c2.209,-0.006 3.994,-1.792 3.999,-4.001l0,0c0.004,-1.957 -1.41,-3.58 -3.271,-3.924l0,0"
              id="svg_70"
              transform="translate(168.49056603773585,75.75471698113208) scale(0.005) translate(-168.49056603773585,-75.75471698113208)"/>
        <path fill="url(#watermark)" opacity="NaN"
              d="m7.562,24.812c-3.313,0 -6,-2.687 -6,-6l0,0c0.002,-2.659 1.734,-4.899 4.127,-5.684l0,0c0.083,-2.26 1.937,-4.064 4.216,-4.066l0,0c0.73,0 1.415,0.19 2.01,0.517l0,0c1.266,-2.105 3.57,-3.516 6.208,-3.517l0,0c3.947,0.002 7.157,3.155 7.248,7.079l0,0c2.362,0.804 4.062,3.034 4.064,5.671l0,0c0,3.313 -2.687,6 -6,6l0,0l-15.873,0l0,0zm16.601,-9.925c-0.511,-0.095 -0.864,-0.562 -0.815,-1.079l0,0c0.017,-0.171 0.027,-0.336 0.027,-0.497l0,0c-0.007,-2.899 -2.352,-5.245 -5.251,-5.249l0,0c-2.249,-0.002 -4.162,1.418 -4.911,3.41l0,0c-0.122,0.323 -0.406,0.564 -0.748,0.63l0,0c-0.34,0.066 -0.694,-0.052 -0.927,-0.309l0,0c-0.416,-0.453 -0.986,-0.731 -1.633,-0.731l0,0c-1.225,0.002 -2.216,0.993 -2.22,2.218l0,0c0,0.136 0.017,0.276 0.045,0.424l0,0c0.049,0.266 -0.008,0.54 -0.163,0.762l0,0c-0.155,0.223 -0.392,0.371 -0.657,0.414l0,0c-1.9,0.313 -3.352,1.949 -3.35,3.931l0,0c0.004,2.209 1.792,3.995 4.001,4.001l0,0l15.874,0c2.209,-0.006 3.994,-1.792 3.999,-4.001l0,0c0.004,-1.957 -1.41,-3.58 -3.271,-3.924l0,0"
              id="svg_71"
              transform="translate(414.52830188679246,63.67924528301886) scale(0.005) translate(-414.52830188679246,-63.67924528301886)"/>
        <path fill="url(#watermark)" opacity="NaN"
              d="m7.562,24.812c-3.313,0 -6,-2.687 -6,-6l0,0c0.002,-2.659 1.734,-4.899 4.127,-5.684l0,0c0.083,-2.26 1.937,-4.064 4.216,-4.066l0,0c0.73,0 1.415,0.19 2.01,0.517l0,0c1.266,-2.105 3.57,-3.516 6.208,-3.517l0,0c3.947,0.002 7.157,3.155 7.248,7.079l0,0c2.362,0.804 4.062,3.034 4.064,5.671l0,0c0,3.313 -2.687,6 -6,6l0,0l-15.873,0l0,0zm16.601,-9.925c-0.511,-0.095 -0.864,-0.562 -0.815,-1.079l0,0c0.017,-0.171 0.027,-0.336 0.027,-0.497l0,0c-0.007,-2.899 -2.352,-5.245 -5.251,-5.249l0,0c-2.249,-0.002 -4.162,1.418 -4.911,3.41l0,0c-0.122,0.323 -0.406,0.564 -0.748,0.63l0,0c-0.34,0.066 -0.694,-0.052 -0.927,-0.309l0,0c-0.416,-0.453 -0.986,-0.731 -1.633,-0.731l0,0c-1.225,0.002 -2.216,0.993 -2.22,2.218l0,0c0,0.136 0.017,0.276 0.045,0.424l0,0c0.049,0.266 -0.008,0.54 -0.163,0.762l0,0c-0.155,0.223 -0.392,0.371 -0.657,0.414l0,0c-1.9,0.313 -3.352,1.949 -3.35,3.931l0,0c0.004,2.209 1.792,3.995 4.001,4.001l0,0l15.874,0c2.209,-0.006 3.994,-1.792 3.999,-4.001l0,0c0.004,-1.957 -1.41,-3.58 -3.271,-3.924l0,0"
              id="svg_72"
              transform="translate(158.67924528301887,54.62264150943396) scale(0.005) translate(-158.67924528301887,-54.62264150943396)"/>
        <path fill="url(#watermark)" opacity="NaN"
              d="m7.562,24.812c-3.313,0 -6,-2.687 -6,-6l0,0c0.002,-2.659 1.734,-4.899 4.127,-5.684l0,0c0.083,-2.26 1.937,-4.064 4.216,-4.066l0,0c0.73,0 1.415,0.19 2.01,0.517l0,0c1.266,-2.105 3.57,-3.516 6.208,-3.517l0,0c3.947,0.002 7.157,3.155 7.248,7.079l0,0c2.362,0.804 4.062,3.034 4.064,5.671l0,0c0,3.313 -2.687,6 -6,6l0,0l-15.873,0l0,0zm16.601,-9.925c-0.511,-0.095 -0.864,-0.562 -0.815,-1.079l0,0c0.017,-0.171 0.027,-0.336 0.027,-0.497l0,0c-0.007,-2.899 -2.352,-5.245 -5.251,-5.249l0,0c-2.249,-0.002 -4.162,1.418 -4.911,3.41l0,0c-0.122,0.323 -0.406,0.564 -0.748,0.63l0,0c-0.34,0.066 -0.694,-0.052 -0.927,-0.309l0,0c-0.416,-0.453 -0.986,-0.731 -1.633,-0.731l0,0c-1.225,0.002 -2.216,0.993 -2.22,2.218l0,0c0,0.136 0.017,0.276 0.045,0.424l0,0c0.049,0.266 -0.008,0.54 -0.163,0.762l0,0c-0.155,0.223 -0.392,0.371 -0.657,0.414l0,0c-1.9,0.313 -3.352,1.949 -3.35,3.931l0,0c0.004,2.209 1.792,3.995 4.001,4.001l0,0l15.874,0c2.209,-0.006 3.994,-1.792 3.999,-4.001l0,0c0.004,-1.957 -1.41,-3.58 -3.271,-3.924l0,0"
              id="svg_73"
              transform="translate(158.67924528301887,54.62264150943396) scale(0.005) translate(-158.67924528301887,-54.62264150943396)"/>
        <path fill="url(#watermark)" opacity="NaN"
              d="m7.562,24.812c-3.313,0 -6,-2.687 -6,-6l0,0c0.002,-2.659 1.734,-4.899 4.127,-5.684l0,0c0.083,-2.26 1.937,-4.064 4.216,-4.066l0,0c0.73,0 1.415,0.19 2.01,0.517l0,0c1.266,-2.105 3.57,-3.516 6.208,-3.517l0,0c3.947,0.002 7.157,3.155 7.248,7.079l0,0c2.362,0.804 4.062,3.034 4.064,5.671l0,0c0,3.313 -2.687,6 -6,6l0,0l-15.873,0l0,0zm16.601,-9.925c-0.511,-0.095 -0.864,-0.562 -0.815,-1.079l0,0c0.017,-0.171 0.027,-0.336 0.027,-0.497l0,0c-0.007,-2.899 -2.352,-5.245 -5.251,-5.249l0,0c-2.249,-0.002 -4.162,1.418 -4.911,3.41l0,0c-0.122,0.323 -0.406,0.564 -0.748,0.63l0,0c-0.34,0.066 -0.694,-0.052 -0.927,-0.309l0,0c-0.416,-0.453 -0.986,-0.731 -1.633,-0.731l0,0c-1.225,0.002 -2.216,0.993 -2.22,2.218l0,0c0,0.136 0.017,0.276 0.045,0.424l0,0c0.049,0.266 -0.008,0.54 -0.163,0.762l0,0c-0.155,0.223 -0.392,0.371 -0.657,0.414l0,0c-1.9,0.313 -3.352,1.949 -3.35,3.931l0,0c0.004,2.209 1.792,3.995 4.001,4.001l0,0l15.874,0c2.209,-0.006 3.994,-1.792 3.999,-4.001l0,0c0.004,-1.957 -1.41,-3.58 -3.271,-3.924l0,0"
              id="svg_77"
              transform="translate(184.33962264150944,39.15094339622641) scale(0.005) translate(-184.33962264150944,-39.15094339622641)"/>
        <path fill="url(#watermark)" opacity="NaN"
              d="m7.562,24.812c-3.313,0 -6,-2.687 -6,-6l0,0c0.002,-2.659 1.734,-4.899 4.127,-5.684l0,0c0.083,-2.26 1.937,-4.064 4.216,-4.066l0,0c0.73,0 1.415,0.19 2.01,0.517l0,0c1.266,-2.105 3.57,-3.516 6.208,-3.517l0,0c3.947,0.002 7.157,3.155 7.248,7.079l0,0c2.362,0.804 4.062,3.034 4.064,5.671l0,0c0,3.313 -2.687,6 -6,6l0,0l-15.873,0l0,0zm16.601,-9.925c-0.511,-0.095 -0.864,-0.562 -0.815,-1.079l0,0c0.017,-0.171 0.027,-0.336 0.027,-0.497l0,0c-0.007,-2.899 -2.352,-5.245 -5.251,-5.249l0,0c-2.249,-0.002 -4.162,1.418 -4.911,3.41l0,0c-0.122,0.323 -0.406,0.564 -0.748,0.63l0,0c-0.34,0.066 -0.694,-0.052 -0.927,-0.309l0,0c-0.416,-0.453 -0.986,-0.731 -1.633,-0.731l0,0c-1.225,0.002 -2.216,0.993 -2.22,2.218l0,0c0,0.136 0.017,0.276 0.045,0.424l0,0c0.049,0.266 -0.008,0.54 -0.163,0.762l0,0c-0.155,0.223 -0.392,0.371 -0.657,0.414l0,0c-1.9,0.313 -3.352,1.949 -3.35,3.931l0,0c0.004,2.209 1.792,3.995 4.001,4.001l0,0l15.874,0c2.209,-0.006 3.994,-1.792 3.999,-4.001l0,0c0.004,-1.957 -1.41,-3.58 -3.271,-3.924l0,0"
              id="svg_78"
              transform="translate(184.33962264150944,39.15094339622641) scale(0.005) translate(-184.33962264150944,-39.15094339622641)"/>
        <path stroke="null"
              d="m192.55097,88.2115c0.0001,-0.00098 0.00015,-0.00196 0.00015,-0.00296c0,-0.01726 -0.01399,-0.03125 -0.03125,-0.03125c-0.0134,0 -0.02479,0.00845 -0.02924,0.0203c-0.00295,-0.00323 -0.00715,-0.0053 -0.01186,-0.0053c-0.00889,0 -0.0161,0.00721 -0.0161,0.0161c0,0.00105 0.00012,0.00208 0.00031,0.00307c-0.01186,0.00196 -0.02094,0.01218 -0.02094,0.02459c0,0.01381 0.0112,0.025 0.025,0.025l0.07938,0c0.01381,0 0.025,-0.01119 0.025,-0.025c0.00001,-0.01226 -0.00883,-0.02241 -0.02046,-0.02455l0.00001,0z"
              id="svg_81"/>
        <path stroke="null"
              d="m199.30946,89.71339c0.0001,-0.00098 0.00015,-0.00196 0.00015,-0.00296c0,-0.01726 -0.01399,-0.03125 -0.03125,-0.03125c-0.0134,0 -0.02479,0.00845 -0.02924,0.0203c-0.00295,-0.00323 -0.00715,-0.0053 -0.01186,-0.0053c-0.00889,0 -0.0161,0.00721 -0.0161,0.0161c0,0.00105 0.00012,0.00208 0.00031,0.00307c-0.01186,0.00196 -0.02094,0.01218 -0.02094,0.02459c0,0.01381 0.0112,0.025 0.025,0.025l0.07938,0c0.01381,0 0.025,-0.01119 0.025,-0.025c0.00001,-0.01226 -0.00883,-0.02241 -0.02046,-0.02455l0.00001,0z"
              id="svg_82"/>
        <g stroke="null" fill="#ffffff" class="icon-text-wrapper icon-svg-group iconsvg" id="svg_10">
            <g stroke="null" class="iconsvg-imagesvg icon_container" id="svg_11">
                <rect stroke="null" fill="#ffffff" fill-opacity="0" stroke-width="2" x="116.80399" y="26.63587"
                      width="102.41757" height="99.46667" class="image-rect" id="svg_12"/>
                <g stroke="null" transform="matrix(1.70696 0 0 1.65778 49.8595 -122.491)" id="svg_92">
                    <svg stroke="null" viewBox="0 0 60 57.20169410209359" x="39.21859" y="89.95618" width="60"
                         height="60" class="image-svg-svg bn" id="svg_5">
                        <g stroke="null" id="svg_30">
                            <g stroke="null" mask="url(#svg_6)" id="svg_34">
                                <svg stroke="null" version="1.1" x="0" y="0"
                                     viewBox="10.666000366210938 12 78.66899871826172 75"
                                     enable-background="new 0 0 100 100" xml:space="preserve" width="60"
                                     height="57.20169" id="svg_48" xmlns="http://www.w3.org/2000/svg">
         <g stroke="null" id="svg_55">
          <path stroke="null"
                d="m81.822,26.173l-19.668,-14.173l-24.308,0l-19.667,14.226l-7.513,23.054l7.513,23.223l19.667,14.497l24.309,0l19.668,-14.466l7.512,-23.299l-7.513,-23.062zm-1.591,44.985l-18.684,13.842l-23.093,0l-18.684,-13.947l-7.137,-22.15l7.137,-21.645l18.684,-13.258l23.093,0l18.685,13.165l7.136,21.758l-7.137,22.235z"
                id="svg_56"/>
         </g>
                                    <g stroke="null" id="svg_53">
          <path stroke="null"
                d="m78.719,28.382l-17.749,-12.382l-21.939,0l-17.75,12.429l-6.78,20.602l6.78,20.922l17.75,13.047l21.939,0l17.749,-13.12l6.78,-20.857l-6.78,-20.641zm-1.436,40.158l-16.863,12.46l-20.841,0l-16.862,-12.556l-6.441,-19.976l6.441,-19.018l16.862,-11.45l20.841,0l16.863,11.374l6.439,19.367l-6.439,19.799z"
                id="svg_54"/>
         </g>
                                    <g stroke="null" id="svg_51">
          <path stroke="null"
                d="m75.847,30.068l-15.974,-11.068l-19.745,0l-15.975,11.11l-6.102,18.505l6.102,19.236l15.975,12.149l19.745,0l15.974,-12.233l6.103,-18.945l-6.103,-18.754zm-1.292,36.394l-15.177,11.538l-18.757,0l-15.176,-11.625l-5.796,-18.141l5.796,-17.022l15.176,-10.212l18.757,0l15.177,10.062l5.795,17.505l-5.795,17.895z"
                id="svg_52"/>
         </g>
                                    <g stroke="null" id="svg_49">
          <path stroke="null"
                d="m73.262,31.987l-14.376,-9.987l-17.771,0l-14.378,10.024l-5.491,16.666l5.491,17.345l14.378,10.965l17.771,0l14.376,-11.035l5.492,-17.076l-5.492,-16.902zm-1.162,32.703l-13.66,10.31l-16.881,0l-13.659,-10.388l-5.217,-16.288l5.217,-15.227l13.659,-9.097l16.881,0l13.66,8.98l5.215,15.68l-5.215,16.03z"
                id="svg_50"/>
         </g>
        </svg>
                            </g>
                            <g stroke="null" filter="url(#colors5605079031)" id="svg_31">
                                <svg stroke="null" fill="#000000" version="1.2" x="12.5" y="11.91702"
                                     viewBox="10 10 80 80" enable-background="new 0 0 100 100" xml:space="preserve"
                                     width="35" height="33.36765" id="svg_57" xmlns="http://www.w3.org/2000/svg">
         <path stroke="null"
               d="m50,10l-40,40l40,40l40,-40l-40,-40zm-30.573,40l30.573,-30.573l12.93,12.93l-4.714,4.714l-8.216,-8.214l-21.143,21.143l8.213,8.216l-4.714,4.714l-12.929,-12.93zm42.292,0l-11.719,11.722l-11.716,-11.722l11.716,-11.716l11.719,11.716zm-24.649,17.644l4.714,-4.714l8.216,8.213l21.146,-21.143l-8.216,-8.216l4.714,-4.714l12.929,12.93l-30.573,30.573l-12.93,-12.929z"
               id="svg_58"/>
        </svg>
                            </g>
                        </g>
                        <mask stroke="null" id="svg_6">
                            <g stroke="null" fill="white" id="svg_17">
                                <svg stroke="null" version="1.1" x="0" y="0"
                                     viewBox="10.666000366210938 12 78.66899871826172 75"
                                     enable-background="new 0 0 100 100" xml:space="preserve" width="60"
                                     height="57.20169" id="svg_59" xmlns="http://www.w3.org/2000/svg">
         <g stroke="null" id="svg_86">
          <path stroke="null"
                d="m81.822,26.173l-19.668,-14.173l-24.308,0l-19.667,14.226l-7.513,23.054l7.513,23.223l19.667,14.497l24.309,0l19.668,-14.466l7.512,-23.299l-7.513,-23.062zm-1.591,44.985l-18.684,13.842l-23.093,0l-18.684,-13.947l-7.137,-22.15l7.137,-21.645l18.684,-13.258l23.093,0l18.685,13.165l7.136,21.758l-7.137,22.235z"
                id="svg_87"/>
         </g>
                                    <g stroke="null" id="svg_83">
          <path stroke="null"
                d="m78.719,28.382l-17.749,-12.382l-21.939,0l-17.75,12.429l-6.78,20.602l6.78,20.922l17.75,13.047l21.939,0l17.749,-13.12l6.78,-20.857l-6.78,-20.641zm-1.436,40.158l-16.863,12.46l-20.841,0l-16.862,-12.556l-6.441,-19.976l6.441,-19.018l16.862,-11.45l20.841,0l16.863,11.374l6.439,19.367l-6.439,19.799z"
                id="svg_84"/>
         </g>
                                    <g stroke="null" id="svg_79">
          <path stroke="null"
                d="m75.847,30.068l-15.974,-11.068l-19.745,0l-15.975,11.11l-6.102,18.505l6.102,19.236l15.975,12.149l19.745,0l15.974,-12.233l6.103,-18.945l-6.103,-18.754zm-1.292,36.394l-15.177,11.538l-18.757,0l-15.176,-11.625l-5.796,-18.141l5.796,-17.022l15.176,-10.212l18.757,0l15.177,10.062l5.795,17.505l-5.795,17.895z"
                id="svg_80"/>
         </g>
                                    <g stroke="null" id="svg_60">
          <path stroke="null"
                d="m73.262,31.987l-14.376,-9.987l-17.771,0l-14.378,10.024l-5.491,16.666l5.491,17.345l14.378,10.965l17.771,0l14.376,-11.035l5.492,-17.076l-5.492,-16.902zm-1.162,32.703l-13.66,10.31l-16.881,0l-13.659,-10.388l-5.217,-16.288l5.217,-15.227l13.659,-9.097l16.881,0l13.66,8.98l5.215,15.68l-5.215,16.03z"
                id="svg_61"/>
         </g>
        </svg>
                            </g>
                            <g stroke="null" fill="black" filter="url(#svg_13)" id="svg_14">
                                <svg stroke="null" version="1.2" x="12.5" y="11.91702" viewBox="10 10 80 80"
                                     enable-background="new 0 0 100 100" xml:space="preserve" width="35"
                                     height="33.36765" id="svg_88" xmlns="http://www.w3.org/2000/svg">
         <path stroke="null"
               d="m50,10l-40,40l40,40l40,-40l-40,-40zm-30.573,40l30.573,-30.573l12.93,12.93l-4.714,4.714l-8.216,-8.214l-21.143,21.143l8.213,8.216l-4.714,4.714l-12.929,-12.93zm42.292,0l-11.719,11.722l-11.716,-11.722l11.716,-11.716l11.719,11.716zm-24.649,17.644l4.714,-4.714l8.216,8.213l21.146,-21.143l-8.216,-8.216l4.714,-4.714l12.929,12.93l-30.573,30.573l-12.93,-12.929z"
               id="svg_89"/>
        </svg>
                            </g>
                            <defs stroke="null">
                                <filter stroke="null" id="svg_13">
                                    <feGaussianBlur in="SourceGraphic" stdDeviation="1.26"/>
                                </filter>
                            </defs>
                        </mask>
                    </svg>
                </g>
                <defs stroke="null"
                      transform="translate(-104.069 5.23252) translate(98.8365 1.16278) translate(101.887 3.39623) translate(-103.019 -4.5283) translate(0.377358 -0.377358) translate(-23 3) translate(-28 23) translate(2 4) translate(-8 -3) translate(56.285 0) translate(83.715 68.75) translate(77.715 182.25) scale(1.42302 1.44444) translate(-77.715 -182.25) translate(34.9363 142.096) scale(1.19954 1.14769) translate(-34.9363 -142.096)">
                    <filter stroke="null" id="colors5605079031"/>
                </defs>
            </g>
            <g stroke="null" id="svg_37">
                <g stroke="null" class="tp-name iconsvg-namesvg" id="svg_38">
                    <g stroke="null" id="svg_39">
                        <path stroke="null"
                              d="m50.015,132.82111l33.06381,51.29164l12.76806,-12.40018l0,2.70218l-11.65853,11.42209l-1.10952,-1.72409l1.45092,2.25458l11.31714,-10.97449l0,2.6856l-10.20762,9.91351l0.32432,0.64653l9.8833,-9.59853l0,2.70218l-8.77377,8.5044l0.32432,0.66311l8.44945,-8.206l0,2.70218l-7.33993,7.11187l1.00711,1.50858l-0.66571,-0.97809l6.99853,-6.68084l0,2.70218l-5.88901,5.70276l3.22615,5.0728l2.66286,-2.58613l0,2.70218l-1.55333,1.50858l-1.00711,-1.62462l1.33143,2.25458l1.22901,-1.17702l0,2.70218l-0.11949,0.09947l-0.2219,-0.33156l0.34139,0.54707l0,4.31022l-15.5504,0l-31.16908,-48.27449l0.66571,0.86204l-15.31143,14.87027l0,-2.6856l14.2019,-13.79271l-1.10952,-1.74067l0.66571,1.1936l-13.75809,13.36169l0,-2.6856l12.76806,-12.40018l-4.77949,-7.32738l-7.98857,7.85787l0,-2.6856l6.98146,-6.79689l0.46088,0.76258l-0.5633,-0.86204l-0.76813,0l-6.11091,5.91827l0,-2.6856l3.32857,-3.23267l-0.99004,0l-2.33853,2.25458l0,-2.25458l-7.76667,0l0,-15.08578l23.3,0l-0.00001,-0.00003zm0,42.33964l-15.53333,15.08578l0,-2.6856l15.53333,-15.08578l0,2.6856zm45.83186,21.13667l-3.00425,2.90111l-1.10952,-1.62462l4.11377,-3.97867l0,2.70218zm0,-3.68027l-4.43809,4.42627l-1.10952,-1.72409l5.54762,-5.38778l0,2.6856l-0.00001,0zm-45.83186,-24.66773l-15.53333,15.08578l0,-2.70218l15.53333,-15.08578l0,2.70218zm-15.53333,8.71991l15.53333,-15.0692l0,2.6856l-15.53333,15.08578l0,-2.70218zm12.98996,16.49489l2.54337,-2.48667l0,2.48667l7.76667,0l0,15.08578l-31.06666,0l0,-15.08578l7.76667,0l0,-1.9396l15.53333,-15.08578l0,2.6856l-14.7652,14.33978l1.00711,0l13.75809,-13.36169l0,2.6856l-10.99282,10.67609l1.00711,0l9.98571,-9.698l0,2.6856l-7.20337,7.0124l0.99004,0l6.21333,-6.03431l0,2.6856l-3.44806,3.34871l0.90469,0l-0.00001,0zm2.54337,-21.65058l-15.53333,15.0692l0,-2.6856l15.53333,-15.08578l0,2.70218zm-3.20908,-15.10236l-12.32425,11.96916l0,-2.70218l11.31714,-10.97449l1.00711,1.70751zm49.04095,14.33978l-13.09238,12.8312l-1.10952,-1.74067l14.2019,-13.79271l0,2.70218zm-14.54329,10.56004l-1.00711,-1.50858l0,-0.21551l15.5504,-15.08578l0,2.6856l-14.54329,14.12427zm-46.8219,-20.15858l0,-2.6856l8.43238,-8.18942l1.00711,1.60804l-9.43949,9.26698zm10.87333,-6.99582l-10.87333,10.56004l0,-2.70218l9.8833,-9.48249l0.99004,1.62462l-0.00001,0.00001zm27.19186,-11.53813l5.42813,5.28831l-1.99714,0l-3.43099,-3.33213l0,-1.95618zm31.06666,-7.97391l-1.89473,-1.82356l1.89473,0l0,1.82356zm-31.06666,13.26222l0,-1.62462l1.65575,1.62462l-1.65575,0zm31.06666,-9.59853l-5.66711,-5.48724l1.99714,0l3.66996,3.54764l0,1.9396l0.00001,0zm-9.21758,-5.27173l-0.10242,-0.21551l1.99714,0l7.32286,7.11187l0,1.9396l-7.76667,-7.54289l-0.88762,0.86204l0.42674,0.53049l0.46088,-0.43102l0,0.76258l7.76667,7.54289l0,1.9396l-7.76667,-7.54289l-0.88762,0.86204l0.42674,0.43102l0.46088,-0.33156l0,0.76258l7.76667,7.54289l0,0.64653l-1.33143,0l-6.43524,-6.24982l-0.88762,0.86204l0.42674,0.43102l0.46088,-0.33156l0,0.76258l4.66,4.52573l-2.01421,0l-2.64579,-2.58613l-0.88762,0.86204l0.42674,0.43102l0.46088,-0.43102l0,0.86204l0.88762,0.86204l-0.88762,0l0,1.07756l0,0l-0.88762,0.86204l0.42674,0.43102l0.46088,-0.43102l0,2.80164l0,-0.11604l-0.88762,0.86204l0.42674,0.54707l0.46088,-0.43102l0,2.70218l0,0l-0.88762,0.84547l0.42674,0.54707l0.46088,-0.43102l0,2.6856l0,0l-0.88762,0.86204l0.42674,0.43102l0.46088,-0.31498l0,2.6856l-15.5504,15.08578l0,-2.6856l14.09949,-13.79271l-0.44381,-0.43102l-0.88762,0.86204l0.44381,0.43102l-0.88762,0l-12.32425,11.95258l0,-2.6856l10.44659,-10.12902l-0.5633,-0.43102l-0.88762,0.86204l0.44381,0.43102l-0.88762,0l-8.55187,8.28889l0,-2.6856l6.67421,-6.46533l-0.5633,-0.43102l-0.88762,0.86204l0.44381,0.43102l-0.88762,0l-4.77949,4.6252l0,-2.6856l2.90183,-2.80164l-0.5633,-0.43102l-0.88762,0.86204l0.54623,0.43102l-0.99004,0l-1.00711,0.97809l0,-2.91769l0.11949,0.09947l0.88762,-0.746l-0.54623,-0.54707l-0.46088,0.54707l0,-2.91769l0.11949,0.11604l0.88762,-0.86204l-0.54623,-0.53049l-0.46088,0.53049l0,-2.91769l0.11949,0.11604l0.88762,-0.86204l-0.54623,-0.54707l-0.46088,0.54707l0,-2.91769l0.11949,0.11604l0.88762,-0.86204l-0.54623,-0.43102l-0.46088,0.43102l0,-1.50858l-0.54623,0l-7.20337,-7.0124l0,-1.9396l7.86908,7.65893l0.88762,-0.86204l-0.54623,-0.43102l-0.46088,0.43102l0,-0.97809l-7.7496,-7.54289l0,-1.9396l7.86908,7.65893l0.88762,-0.86204l-0.54623,-0.43102l-0.46088,0.43102l0,-0.97809l-7.7496,-7.54289l0,-0.746l1.21194,0l6.65714,6.46533l0.88762,-0.746l-0.54623,-0.54707l-0.46088,0.54707l0,-0.97809l-4.86483,-4.74124l1.99714,0l2.98718,2.90111l0.88762,-0.86204l-0.54623,-0.53049l-0.46088,0.53049l0,-0.96151l-1.09245,-1.07756l3.20908,0l-0.66571,0.53049l0.54623,0.54707l0.90469,-0.86204l-0.23897,-0.21551l3.22615,0l-0.66571,0.53049l0.54623,0.54707l0.90469,-0.86204l-0.23897,-0.21551l3.10667,0l-0.54623,0.53049l0.54623,0.54707l0.90469,-0.86204l-0.2219,-0.21551l3.10667,0l-0.5633,0.53049l0.44381,0.54707l0.88762,-0.86204l0.00003,-0.00001zm-12.64857,25.86133l0.54623,0.53049l0.90469,-0.84547l-0.5633,-0.54707l-0.88762,0.86204l0,0.00001zm0,-3.66369l0.54623,0.53049l0.90469,-0.86204l-0.5633,-0.53049l-0.88762,0.86204zm0,-3.66369l0.54623,0.53049l0.90469,-0.84547l-0.5633,-0.54707l-0.88762,0.86204l0,0.00001zm0,-3.56422l0.54623,0.43102l0.90469,-0.84547l-0.5633,-0.4476l-0.88762,0.86204l0,0.00001zm0,-3.66369l0.54623,0.43102l0.90469,-0.84547l-0.5633,-0.4476l-0.88762,0.86204l0,0.00001zm0,-3.66369l0.54623,0.43102l0.90469,-0.86204l-0.5633,-0.41444l-0.88762,0.84547l0,-0.00001zm0,-3.66369l0.54623,0.54707l0.90469,-0.86204l-0.5633,-0.53049l-0.88762,0.84547l0,-0.00001zm1.87766,23.70622l0.5633,0.43102l0.88762,-0.746l-0.54623,-0.54707l-0.90469,0.86204l0,0.00001zm0,-3.66369l0.5633,0.54707l0.88762,-0.86204l-0.54623,-0.53049l-0.90469,0.84547l0,-0.00001zm0,-3.66369l0.5633,0.54707l0.88762,-0.86204l-0.54623,-0.54707l-0.90469,0.86204zm0,-3.54764l0.5633,0.43102l0.88762,-0.86204l-0.54623,-0.43102l-0.90469,0.86204zm0,-3.66369l0.5633,0.43102l0.88762,-0.86204l-0.54623,-0.43102l-0.90469,0.86204zm0,-3.66369l0.5633,0.43102l0.88762,-0.86204l-0.54623,-0.43102l-0.90469,0.86204zm0,-3.66369l0.5633,0.43102l0.88762,-0.746l-0.54623,-0.54707l-0.90469,0.86204l0,0.00001zm0,-3.66369l0.5633,0.53049l0.88762,-0.86204l-0.54623,-0.53049l-0.90469,0.86204zm1.89473,23.70622l0.54623,0.53049l0.90469,-0.84547l-0.5633,-0.54707l-0.88762,0.86204l0,0.00001zm0,-3.66369l0.54623,0.53049l0.90469,-0.86204l-0.5633,-0.53049l-0.88762,0.86204zm0,-3.66369l0.54623,0.53049l0.90469,-0.84547l-0.5633,-0.54707l-0.88762,0.86204l0,0.00001zm0,-3.56422l0.54623,0.43102l0.90469,-0.84547l-0.5633,-0.4476l-0.88762,0.86204l0,0.00001zm0,-3.66369l0.54623,0.43102l0.90469,-0.84547l-0.5633,-0.4476l-0.88762,0.86204l0,0.00001zm0,-3.66369l0.54623,0.43102l0.90469,-0.86204l-0.5633,-0.41444l-0.88762,0.84547l0,-0.00001zm0,-3.66369l0.54623,0.54707l0.90469,-0.86204l-0.5633,-0.53049l-0.88762,0.84547l0,-0.00001zm1.87766,23.70622l0.5633,0.43102l0.88762,-0.746l-0.54623,-0.54707l-0.90469,0.86204l0,0.00001zm0,-3.66369l0.5633,0.54707l0.88762,-0.86204l-0.54623,-0.53049l-0.90469,0.84547l0,-0.00001zm0,-3.66369l0.5633,0.54707l0.88762,-0.86204l-0.54623,-0.54707l-0.90469,0.86204zm0,-3.54764l0.5633,0.43102l0.88762,-0.86204l-0.54623,-0.43102l-0.90469,0.86204zm0,-3.66369l0.5633,0.43102l0.88762,-0.86204l-0.54623,-0.43102l-0.90469,0.86204zm0,-3.66369l0.5633,0.43102l0.88762,-0.86204l-0.54623,-0.43102l-0.90469,0.86204zm0,-3.66369l0.5633,0.43102l0.88762,-0.746l-0.54623,-0.54707l-0.90469,0.86204l0,0.00001zm0,-3.66369l0.5633,0.53049l0.88762,-0.86204l-0.54623,-0.53049l-0.90469,0.86204zm1.89473,23.70622l0.54623,0.53049l0.90469,-0.84547l-0.5633,-0.54707l-0.88762,0.86204l0,0.00001zm0,-3.66369l0.54623,0.53049l0.90469,-0.86204l-0.5633,-0.53049l-0.88762,0.86204zm0,-3.66369l0.54623,0.53049l0.90469,-0.84547l-0.5633,-0.54707l-0.88762,0.86204l0,0.00001zm0,-3.56422l0.54623,0.43102l0.90469,-0.84547l-0.5633,-0.4476l-0.88762,0.86204l0,0.00001zm0,-3.66369l0.54623,0.43102l0.90469,-0.84547l-0.5633,-0.4476l-0.88762,0.86204l0,0.00001zm0,-3.66369l0.54623,0.43102l0.90469,-0.86204l-0.5633,-0.41444l-0.88762,0.84547l0,-0.00001zm0,-3.66369l0.54623,0.54707l0.90469,-0.86204l-0.5633,-0.53049l-0.88762,0.84547l0,-0.00001zm1.89473,23.70622l0.42674,0.43102l0.90469,-0.746l-0.44381,-0.54707l-0.88762,0.86204l0,0.00001zm0,-3.66369l0.42674,0.54707l0.90469,-0.86204l-0.44381,-0.53049l-0.88762,0.84547l0,-0.00001zm0,-3.66369l0.42674,0.54707l0.90469,-0.86204l-0.44381,-0.54707l-0.88762,0.86204zm0,-3.54764l0.42674,0.43102l0.90469,-0.86204l-0.44381,-0.43102l-0.88762,0.86204zm0,-3.66369l0.42674,0.43102l0.90469,-0.86204l-0.44381,-0.43102l-0.88762,0.86204zm0,-3.66369l0.42674,0.43102l0.90469,-0.86204l-0.44381,-0.43102l-0.88762,0.86204zm0,-3.66369l0.42674,0.43102l0.90469,-0.746l-0.44381,-0.54707l-0.88762,0.86204l0,0.00001zm0,-3.66369l0.42674,0.53049l0.90469,-0.86204l-0.44381,-0.53049l-0.88762,0.86204zm1.87766,23.70622l0.44381,0.53049l0.88762,-0.84547l-0.44381,-0.54707l-0.88762,0.86204l0,0.00001zm0,-3.66369l0.44381,0.53049l0.88762,-0.86204l-0.44381,-0.53049l-0.88762,0.86204zm0,-3.66369l0.44381,0.53049l0.88762,-0.84547l-0.44381,-0.54707l-0.88762,0.86204l0,0.00001zm0,-3.56422l0.44381,0.43102l0.88762,-0.84547l-0.44381,-0.4476l-0.88762,0.86204l0,0.00001zm0,-3.66369l0.44381,0.43102l0.88762,-0.84547l-0.44381,-0.4476l-0.88762,0.86204l0,0.00001zm0,-3.66369l0.44381,0.43102l0.88762,-0.86204l-0.44381,-0.41444l-0.88762,0.84547l0,-0.00001zm0,-3.66369l0.44381,0.54707l0.88762,-0.86204l-0.44381,-0.53049l-0.88762,0.84547l0,-0.00001zm79.6638,18.43449l0,30.17156l-0.88762,0l0.88762,0.86204q0,0.54707 -0.05121,0.91178q-0.06828,0.38129 -0.1707,0.91178l0,0l-2.66286,-2.6856l-1.77524,0l4.21619,4.09471l-0.32432,1.60804l-5.88901,-5.70276l-1.77524,0l7.32286,6.99582q-0.2219,0.43102 -0.34139,0.76258q-0.10242,0.31498 -0.2219,0.746l0,0l-8.7567,-8.5044l-1.77524,0l9.98571,9.698q-0.44381,0.86204 -0.66571,1.1936l0,0l-11.31714,-10.8916l-1.33143,0l0,-30.17156q0,-0.54707 -0.05121,-0.97809q-0.05121,-0.43102 -0.1707,-0.96151l0,0l11.41956,-11.10711q0.34139,0.4476 0.61451,0.81231q0.29018,0.38129 0.51209,0.81231l0,0l-11.76095,11.42209l0.99004,0l11.09524,-10.87502q0.2219,0.53049 0.44381,0.91178q0.2219,0.38129 0.44381,0.91178l0,0l-9.21758,9.05147l1.00711,0l8.5348,-8.40493q0.2219,0.54707 0.3926,1.02782q0.1707,0.48076 0.3926,1.01124l0,0l-6.65714,6.36587l0.99004,0l5.78659,-5.60329q0.2219,0.53049 0.32432,1.12729q0.10242,0.5968 0.2219,1.12729l0,0l-3.55048,3.34871l0.99004,0l2.66286,-2.47009q0.11949,0.53049 0.11949,1.17702q0,0.64653 0,1.29307l0,0l-0.00002,0zm-6.43524,-15.61627l-10.97575,10.65951q-0.34139,-0.33156 -0.68278,-0.64653q-0.32432,-0.33156 -0.76813,-0.64653l0,0l10.97575,-10.65951q0.46088,0.31498 0.7852,0.64653q0.34139,0.31498 0.66571,0.64653l0,0zm-1.99714,-1.74067l-11.09524,10.79213q-0.66571,-0.4476 -1.99714,-0.76258l0,0l11.53905,-11.20658q0.7852,0.54707 1.55333,1.17702l0,0l0,0.00001zm3.66996,3.77973l-11.31714,10.99107q-0.34139,-0.86204 -0.90469,-1.84013l0,0l10.99282,-10.65951q0.66571,0.746 1.22901,1.50858l0,0l0,-0.00001zm-41.83758,15.30129l0,1.9396l-13.4167,-13.04671l0.66571,-1.29307l12.75099,12.40018zm23.3,35.99036l0.10242,0l12.10234,11.73707l-1.33143,0.64653l-10.87333,-10.56004l0,1.72409l9.76381,9.48249q-0.32432,0.23209 -0.66571,0.28182q-0.32432,0.04973 -0.76813,0.26524l0,0l-8.32996,-8.08996l0,1.72409l7.10095,6.79689q-0.5633,0.21551 -1.65575,0.43102l0,0l-5.4452,-5.28831l0,1.62462l3.99429,3.97867q-0.44381,0.11604 -0.83641,0.11604q-0.37553,0 -0.83641,0.09947l0,0l-2.32146,-2.25458l0,1.72409l0.66571,0.64653l-0.66571,0l-15.53333,0q-4.8819,0 -9.09809,-1.77382q-4.21619,-1.7904 -7.37406,-4.85729q-3.15788,-3.06689 -5.00139,-7.1616q-1.82645,-4.09471 -1.82645,-8.83596l0,0l1.43385,0l-1.43385,-1.40911l0,-1.9396l3.44806,3.34871l1.77524,0l-5.2233,-5.0728l0,-1.9396l7.22044,7.0124l1.77524,0l-8.99568,-8.71991l0,-1.95618l10.99282,10.67609l1.77524,0l-12.76806,-12.40018l0,-1.9396l14.74813,14.33978l0.7852,0q0,3.11662 2.27026,5.33804q2.28733,2.20484 5.49641,2.20484l0,0l15.53333,0l-0.00003,0.00002zm-23.3,-10.46058l0,1.9396l-15.53333,-15.08578l0,-1.9396l15.53333,15.08578zm0,-3.66369l0,1.9396l-15.53333,-15.08578l0,-1.92302l15.53333,15.0692zm0,-3.54764l0,1.9396l-15.53333,-15.08578l0,-1.9396l15.53333,15.08578zm36.51186,28.76244l-11.53905,-11.30604q0.88762,-0.21551 1.55333,-0.43102l0,0l11.19765,10.87502q-0.32432,0.23209 -0.61451,0.43102q-0.27311,0.21551 -0.59744,0.43102l0,0l0.00002,0zm5.75245,-5.48724l-11.52198,-11.10711q0.32432,-0.746 0.32432,-1.72409l0,0l11.98286,11.6376q-0.2219,0.33156 -0.3926,0.66311q-0.15363,0.31498 -0.3926,0.53049l0,0zm-1.65575,2.03907l-11.09524,-10.65951q0.32432,-0.43102 0.76813,-1.29307l0,0l11.21472,10.8916q-0.2219,0.31498 -0.44381,0.58022q-0.2219,0.26524 -0.44381,0.48076l0,0l0.00001,0zm-1.99714,1.84013l-10.99282,-10.77556q0.66571,-0.43102 1.12659,-0.86204l0,0l10.97575,10.65951q-0.66571,0.64653 -1.10952,0.97809l0,0zm-38.61142,-47.19693l0,0.09947l-12.08527,-11.85311q0.2219,-0.53049 0.76813,-1.17702l0,0l11.53905,11.20658q-0.2219,1.07756 -0.2219,1.72409l0,0l-0.00001,-0.00001zm-7.86908,-16.80987l11.09524,10.77556q-0.44381,0.21551 -1.10952,0.86204l0,0l-10.99282,-10.67609l1.00711,-0.96151l-0.00001,0zm7.86908,33.18871l0,1.9396l-15.53333,-15.08578l0,-1.9396l15.53333,15.08578zm-5.76952,-34.81333l11.53905,11.22316q-1.00711,0.19893 -1.45092,0.53049l0,0l-11.19765,-10.8916q0.2219,-0.21551 0.5633,-0.41444q0.32432,-0.23209 0.54623,-0.4476l0,0l-0.00001,-0.00001zm13.53619,10.8916l-0.54623,0l-11.88044,-11.53813q0.32432,-0.31498 1.22901,-0.746l0,0l11.31714,10.99107l0.88762,-0.86204l-0.5633,-0.43102l-0.44381,0.43102l0,-0.97809l-10.08813,-9.68142q0.32432,-0.23209 0.71692,-0.33156q0.37553,-0.11604 0.71692,-0.31498l0,0l8.77377,8.5044l0.88762,-0.86204l-0.5633,-0.43102l-0.44381,0.43102l0,-0.86204l-7.42527,-7.22791q0.44381,-0.19893 0.81934,-0.26524q0.3926,-0.04973 0.71692,-0.16578l0,0l6.0085,5.8188l0.88762,-0.84547l-0.5633,-0.54707l-0.44381,0.54707l0,-0.97809l-4.43809,-4.31022q0.44381,-0.09947 0.83641,-0.16578q0.3926,-0.04973 0.93883,-0.16578l0,0l2.78234,2.80164l0.88762,-0.86204l-0.5633,-0.53049l-0.44381,0.53049l0,-0.96151l-1.10952,-1.07756l1.10952,0l2.11663,0l-0.66571,0.53049l0.54623,0.54707l0.88762,-0.86204l-0.2219,-0.21551l3.20908,0l-0.66571,0.53049l0.5633,0.54707l0.88762,-0.86204l-0.2219,-0.21551l3.10667,0l-0.54623,0.53049l0.54623,0.54707l0.7852,-0.86204l-0.11949,-0.21551l3.10667,0l-0.54623,0.53049l0.44381,0.54707l0.88762,-0.86204l-0.11949,-0.21551l1.55333,0l1.55333,0l-1.55333,1.50858l-0.88762,0.86204l0.44381,0.53049l2.88476,-2.80164q0.5633,0.11604 1.16073,0.16578q0.61451,0.06631 1.1778,0.26524l0,0l-4.77949,4.64178l-0.88762,0.86204l0.44381,0.53049l6.09385,-5.91827q0.5633,0.21551 1.05831,0.33156q0.51209,0.09947 1.05831,0.31498l0,0l-7.76667,7.54289l-0.88762,0.86204l0.44381,0.43102l8.87619,-8.62044q0.5633,0.21551 1.00711,0.43102q0.42674,0.21551 0.99004,0.43102l0,0l-10.42952,10.12902l-0.88762,0.86204l0.44381,0.43102l11.43663,-11.10711q0.54623,0.21551 0.93883,0.49733q0.3926,0.26524 0.83641,0.48076l0,0l-11.77802,11.52156q-0.32432,-0.09947 -0.99004,-0.09947l0,0l-1.77524,0l0.34139,-0.31498l-0.46088,-0.4476l-0.76813,0.76258l-2.78234,0l0.23897,-0.31498l-0.44381,-0.4476l-0.7852,0.76258l-2.76527,0l0.32432,-0.31498l-0.54623,-0.4476l-0.7852,0.76258l-2.78234,0l0.34139,-0.31498l-0.54623,-0.4476l-0.7852,0.76258l-1.55333,0l0.00001,-0.00004zm13.63861,-11.73707l-0.87055,0.84547l0.44381,0.54707l0.88762,-0.86204l-0.46088,-0.53049l0,-0.00001zm0,3.66369l-0.87055,0.84547l0.44381,0.43102l0.88762,-0.86204l-0.46088,-0.41444l0,-0.00001zm0,3.64711l-0.87055,0.86204l0.44381,0.43102l0.88762,-0.84547l-0.46088,-0.4476l0,0.00001zm-1.87766,-9.15093l-0.88762,0.86204l0.44381,0.53049l0.88762,-0.86204l-0.44381,-0.53049zm0,3.66369l-0.88762,0.86204l0.44381,0.53049l0.88762,-0.84547l-0.44381,-0.54707l0,0.00001zm0,3.66369l-0.88762,0.86204l0.44381,0.43102l0.88762,-0.86204l-0.44381,-0.43102zm0,3.66369l-0.88762,0.86204l0.44381,0.43102l0.88762,-0.86204l-0.44381,-0.43102zm-1.87766,-9.15093l-0.88762,0.84547l0.54623,0.54707l0.7852,-0.86204l-0.44381,-0.53049l0,-0.00001zm0,3.66369l-0.88762,0.84547l0.54623,0.43102l0.7852,-0.86204l-0.44381,-0.41444l0,-0.00001zm0,3.64711l-0.88762,0.86204l0.54623,0.43102l0.7852,-0.84547l-0.44381,-0.4476l0,0.00001zm-1.89473,-9.15093l-0.88762,0.86204l0.5633,0.53049l0.88762,-0.86204l-0.5633,-0.53049zm0,3.66369l-0.88762,0.86204l0.5633,0.53049l0.88762,-0.84547l-0.5633,-0.54707l0,0.00001zm0,3.66369l-0.88762,0.86204l0.5633,0.43102l0.88762,-0.86204l-0.5633,-0.43102zm0,3.66369l-0.88762,0.86204l0.5633,0.43102l0.88762,-0.86204l-0.5633,-0.43102zm-1.87766,-9.15093l-0.90469,0.84547l0.5633,0.54707l0.88762,-0.86204l-0.54623,-0.53049l0,-0.00001zm0,3.66369l-0.90469,0.84547l0.5633,0.43102l0.88762,-0.86204l-0.54623,-0.41444l0,-0.00001zm0,3.64711l-0.90469,0.86204l0.5633,0.43102l0.88762,-0.84547l-0.54623,-0.4476l0,0.00001zm-1.89473,-9.15093l-0.88762,0.86204l0.54623,0.53049l0.90469,-0.86204l-0.5633,-0.53049zm0,3.66369l-0.88762,0.86204l0.54623,0.53049l0.90469,-0.84547l-0.5633,-0.54707l0,0.00001zm0,3.66369l-0.88762,0.86204l0.54623,0.43102l0.90469,-0.86204l-0.5633,-0.43102zm0,3.66369l-0.88762,0.86204l0.54623,0.43102l0.90469,-0.86204l-0.5633,-0.43102zm-1.87766,-9.15093l-0.88762,0.84547l0.54623,0.54707l0.88762,-0.86204l-0.54623,-0.53049l0,-0.00001zm0,3.66369l-0.88762,0.84547l0.54623,0.43102l0.88762,-0.86204l-0.54623,-0.41444l0,-0.00001zm0,3.64711l-0.88762,0.86204l0.54623,0.43102l0.88762,-0.84547l-0.54623,-0.4476l0,0.00001zm-19.74952,-3.00058l10.97575,10.77556q-0.2219,0.19893 -0.3926,0.53049q-0.15363,0.31498 -0.27311,0.64653l0,0l-11.31714,-10.87502q0.2219,-0.23209 0.49502,-0.54707q0.27311,-0.33156 0.51209,-0.53049l0,0l-0.00001,0zm9.64432,27.68489l0,1.9396l-15.53333,-15.08578q0,-0.54707 0,-0.91178q0,-0.38129 0.10242,-0.92836l0,0l15.43091,14.98631l0,0.00001zm0,-3.66369l0,1.9396l-15.19194,-14.7708l0.32432,-1.60804l14.86762,14.43924zm0,-3.66369l0,1.9396l-14.52623,-14.00822q0.2219,-0.43102 0.27311,-0.76258q0.05121,-0.31498 0.27311,-0.746l0,0l13.98,13.5772l0.00001,0zm126.4857,-15.73231l-2.88476,2.80164l-2.66286,0l5.54762,-5.38778l0,2.58613l0,0.00001zm-52.93281,40.7316l12.32425,-11.95258l0.66571,2.03907l-12.32425,11.95258l-0.66571,-2.03907zm0.88762,2.70218l12.32425,-11.96916l0.66571,2.03907l-12.32425,11.96916l-0.66571,-2.03907zm47.94849,-50.33013l-0.5633,1.39253l-0.44381,-0.41444l-0.88762,0.84547l0.5633,0.4476l5.42813,-5.28831l0,2.6856l-5.99143,5.8188l-0.44381,1.40911l6.43524,-6.24982l0,2.70218l-6.55472,6.34929l-2.54337,0l1.33143,1.29307l-0.54623,1.40911l-2.78234,-2.70218l-1.77524,0l4.0967,3.97867l-0.44381,1.50858l-5.65004,-5.48724l-1.77524,0l6.99853,6.79689l-0.46088,1.39253l-8.5348,-8.18942l-1.67282,0l9.76381,9.48249l-0.54623,1.50858l-11.21472,-10.99107l-2.09956,0l1.00711,-0.96151l0,0l0.42674,-1.40911l-2.44095,2.37062l-2.76527,0l6.65714,-6.46533l0,0l0.44381,-1.29307l-7.98857,7.7584l-1.99714,0l0,-0.76258l11.41956,-11.20658l-0.10242,0l0.44381,-1.17702l-11.76095,11.42209l0,-2.70218l10.97575,-10.65951l3.00425,0l0.32432,0.33156l0.44381,-0.33156l3.00425,0l0.32432,0.33156l0.34139,-0.33156l3.00425,0l0.42674,0.33156l0.34139,-0.33156l2.98718,0l0.46088,0.33156l0.32432,-0.33156l2.76527,0l0,0l-0.42674,1.29307l-0.46088,-0.43102l-0.87055,0.86204l0.54623,0.43102l2.21905,-2.15511l1.33143,0l0,1.39253l-4.0967,3.99524l0,-0.00001zm-18.75948,7.21133l0.44381,0.54707l0.88762,-0.86204l-0.44381,-0.43102l-0.88762,0.746l0,-0.00001zm1.87766,1.84013l0.44381,0.53049l0.88762,-0.84547l-0.44381,-0.54707l-0.88762,0.86204l0,0.00001zm0,-3.56422l0.44381,0.43102l0.88762,-0.86204l-0.44381,-0.41444l-0.88762,0.84547l0,-0.00001zm0,-3.66369l0.44381,0.4476l0.88762,-0.87862l-0.44381,-0.41444l-0.88762,0.84547l0,-0.00001zm1.89473,5.38778l0.44381,0.54707l0.88762,-0.86204l-0.44381,-0.43102l-0.88762,0.746l0,-0.00001zm0,-3.54764l0.44381,0.43102l0.88762,-0.86204l-0.44381,-0.43102l-0.88762,0.86204zm0,-3.66369l0.44381,0.43102l0.88762,-0.86204l-0.44381,-0.43102l-0.88762,0.86204zm0,-3.66369l0.44381,0.43102l0.88762,-0.86204l-0.44381,-0.43102l-0.88762,0.86204zm1.87766,12.71516l0.44381,0.53049l0.88762,-0.84547l-0.44381,-0.54707l-0.88762,0.86204l0,0.00001zm0,-3.56422l0.44381,0.43102l0.88762,-0.86204l-0.44381,-0.41444l-0.88762,0.84547l0,-0.00001zm0,-3.66369l0.44381,0.4476l0.88762,-0.87862l-0.44381,-0.41444l-0.88762,0.84547l0,-0.00001zm0,-3.66369l0.44381,0.4476l0.88762,-0.87862l-0.44381,-0.43102l-0.88762,0.86204zm1.89473,9.05147l0.44381,0.54707l0.88762,-0.86204l-0.44381,-0.43102l-0.88762,0.746l0,-0.00001zm0,-3.54764l0.44381,0.43102l0.88762,-0.86204l-0.44381,-0.43102l-0.88762,0.86204zm0,-3.66369l0.44381,0.43102l0.88762,-0.86204l-0.44381,-0.43102l-0.88762,0.86204zm0,-3.66369l0.44381,0.43102l0.88762,-0.86204l-0.44381,-0.43102l-0.88762,0.86204zm1.87766,12.71516l0.44381,0.53049l0.88762,-0.84547l-0.42674,-0.54707l-0.90469,0.86204l0,0.00001zm0,-3.56422l0.44381,0.43102l0.88762,-0.86204l-0.42674,-0.41444l-0.90469,0.84547l0,-0.00001zm0,-3.66369l0.44381,0.4476l0.88762,-0.87862l-0.42674,-0.41444l-0.90469,0.84547l0,-0.00001zm0,-3.66369l0.44381,0.4476l0.88762,-0.87862l-0.42674,-0.43102l-0.90469,0.86204zm1.89473,9.05147l0.44381,0.54707l0.88762,-0.86204l-0.5633,-0.43102l-0.76813,0.746l0,-0.00001zm0,-3.54764l0.44381,0.43102l0.88762,-0.86204l-0.5633,-0.43102l-0.76813,0.86204zm0,-3.66369l0.44381,0.43102l0.88762,-0.86204l-0.5633,-0.43102l-0.76813,0.86204zm0,-3.66369l0.44381,0.43102l0.88762,-0.86204l-0.5633,-0.43102l-0.76813,0.86204zm1.77524,12.71516l0.54623,0.53049l0.90469,-0.84547l-0.5633,-0.54707l-0.88762,0.86204l0,0.00001zm0,-3.56422l0.54623,0.43102l0.90469,-0.86204l-0.5633,-0.41444l-0.88762,0.84547l0,-0.00001zm0,-3.66369l0.54623,0.4476l0.90469,-0.87862l-0.5633,-0.41444l-0.88762,0.84547l0,-0.00001zm0,-3.66369l0.54623,0.4476l0.90469,-0.87862l-0.5633,-0.43102l-0.88762,0.86204zm1.87766,9.05147l0.5633,0.54707l0.88762,-0.86204l-0.54623,-0.43102l-0.90469,0.746l0,-0.00001zm0,-3.54764l0.5633,0.43102l0.88762,-0.86204l-0.54623,-0.43102l-0.90469,0.86204zm0,-3.66369l0.5633,0.43102l0.88762,-0.86204l-0.54623,-0.43102l-0.90469,0.86204zm0,-3.66369l0.5633,0.43102l0.88762,-0.86204l-0.54623,-0.43102l-0.90469,0.86204zm2.78234,0.96151l-0.88762,0.86204l0.5633,0.4476l0.88762,-0.87862l-0.5633,-0.43102zm5.10381,10.56004l0,1.84013l-1.89473,0l1.89473,-1.84013zm-51.03809,45.25733l12.32425,-11.95258l0.64864,2.03907l-12.30718,11.96916l-0.66571,-2.05564l0,-0.00001zm0.88762,2.80164l12.30718,-12.05204l0.66571,2.03907l-12.30718,11.95258l-0.66571,-1.9396l0,-0.00001zm-6.43524,-19.27996l12.32425,-11.96916l0.64864,2.05564l-12.30718,11.96916l-0.66571,-2.05564zm2.76527,8.18942l12.32425,-11.96916l0.66571,2.05564l-12.32425,11.96916l-0.66571,-2.05564zm16.86476,1.82356l0.66571,2.05564l-0.10242,0.11604l11.98286,11.62102l-0.44381,1.50858l-10.65143,-10.34453l-0.88762,0.86204l0.54623,0.43102l0.7852,-0.746l0.66571,2.05564l-0.10242,0.09947l9.20051,8.952l-0.44381,1.39253l-7.88615,-7.54289l-0.87055,0.86204l0.42674,0.43102l0.7852,-0.76258l0.76813,2.05564l-0.10242,0.11604l6.43524,6.13378l-0.5633,1.50858l-4.98432,-4.85729l-0.88762,0.76258l0.44381,0.53049l0.76813,-0.746l0.66571,2.03907l0,0l3.55048,3.56422l-0.42674,1.29307l-0.23897,0l-1.99714,-2.05564l-0.88762,0.86204l0.44381,0.54707l0.7852,-0.746l0.44381,1.39253l-2.44095,0l-0.2219,-0.21551l-0.2219,0.21551l-3.32857,0l-0.2219,-0.21551l-0.2219,0.21551l-3.32857,0l-0.2219,-0.21551l-0.2219,0.21551l-3.32857,0l-0.2219,-0.21551l-0.11949,0.21551l-2.21905,0l-0.20484,-0.43102l3.0896,-2.91769l-0.2219,-0.21551l0.2219,-0.86204l-3.32857,3.34871l-0.66571,-2.05564l5.88901,-5.70276l-0.2219,-0.21551l0.2219,-0.76258l-6.11091,5.93484l-0.66571,-2.05564l8.67135,-8.38836l-0.34139,-0.23209l0.2219,-0.64653l-8.77377,8.52098l-0.76813,-1.9396l11.53905,-11.09053l-0.34139,-0.33156l0.11949,-0.54707l-11.53905,11.20658l-0.66571,-2.03907l12.30718,-11.96916l-0.00004,0.00003zm-5.10381,22.19764l0.5633,0.54707l0.88762,-0.86204l-0.5633,-0.54707l-0.88762,0.86204zm0,-3.66369l0.5633,0.54707l0.88762,-0.86204l-0.5633,-0.54707l-0.88762,0.86204zm1.89473,1.84013l0.54623,0.53049l0.90469,-0.86204l-0.5633,-0.53049l-0.88762,0.86204zm0,-3.66369l0.54623,0.53049l0.90469,-0.86204l-0.5633,-0.43102l-0.88762,0.76258l0,-0.00001zm0,-3.54764l0.54623,0.41444l0.90469,-0.86204l-0.5633,-0.43102l-0.88762,0.87862zm1.87766,9.03489l0.5633,0.54707l0.88762,-0.86204l-0.54623,-0.54707l-0.90469,0.86204zm0,-3.66369l0.5633,0.54707l0.88762,-0.86204l-0.54623,-0.54707l-0.90469,0.86204zm0,-3.54764l0.5633,0.43102l0.88762,-0.86204l-0.54623,-0.43102l-0.90469,0.86204zm0,-3.66369l0.5633,0.43102l0.88762,-0.86204l-0.54623,-0.43102l-0.90469,0.86204zm0,-3.66369l0.5633,0.43102l0.88762,-0.86204l-0.54623,-0.43102l-0.90469,0.86204zm1.89473,12.71516l0.54623,0.53049l0.7852,-0.86204l-0.44381,-0.53049l-0.88762,0.86204zm0,-3.66369l0.54623,0.53049l0.7852,-0.86204l-0.44381,-0.43102l-0.88762,0.76258l0,-0.00001zm0,-3.54764l0.54623,0.41444l0.7852,-0.86204l-0.44381,-0.43102l-0.88762,0.87862zm5.10381,6.87978l-0.44381,-0.53049l-0.88762,0.86204l0.44381,0.53049l0.88762,-0.86204zm-1.87766,-5.48724l-0.46088,-0.43102l-0.87055,0.86204l0.42674,0.43102l0.90469,-0.86204zm0,3.66369l-0.46088,-0.54707l-0.87055,0.86204l0.42674,0.54707l0.90469,-0.86204zm0,3.66369l-0.46088,-0.54707l-0.87055,0.86204l0.42674,0.54707l0.90469,-0.86204zm-1.89473,-12.81462l-0.44381,-0.4476l-0.88762,0.87862l0.54623,0.41444l0.7852,-0.84547l0,0.00001zm-19.74952,-13.59378l12.30718,-11.95258l0.7852,2.03907l-12.42666,11.96916l-0.66571,-2.05564l-0.00001,-0.00001zm-0.88762,-2.80164l12.30718,-11.95258l0.66571,2.03907l-12.30718,11.96916l-0.66571,-2.05564l0,-0.00001zm-1.89473,-5.48724l12.42666,-11.95258l0.66571,2.03907l-12.30718,11.95258l-0.7852,-2.03907l0.00001,0zm-0.88762,-2.6856l12.32425,-11.96916l0.66571,1.9396l-12.32425,12.06862l-0.66571,-2.03907l0,0.00001zm27.41377,-34.1668l0,-2.37062l2.44095,0l-2.44095,2.37062zm-10.87333,12.71516l-7.32286,0l0.10242,0.43102l-12.30718,11.95258l-0.66571,-1.9396l10.75384,-10.444l-0.99004,0l-9.98571,9.698l-0.66571,-2.05564l7.86908,-7.64236l-0.99004,0l-7.22044,6.89636l-0.66571,-1.9396l5.10381,-4.95676l-0.99004,0l-4.33568,4.19418l-0.66571,-2.03907l2.21905,-2.15511l-0.99004,0l-1.45092,1.40911l-0.44381,-1.40911l-7.42527,0l0,-15.08578l31.06666,0l0,15.08578l0.00001,0zm10.87333,-8.07338l7.20337,-7.0124l2.78234,0l-9.98571,9.698l0,-2.6856zm0,-3.66369l3.44806,-3.34871l2.76527,0l-6.21333,6.03431l0,-2.6856zm-30.17904,24.88324l12.30718,-11.96916l0.66571,2.05564l-12.30718,11.96916l-0.66571,-2.05564zm1.87766,5.48724l12.32425,-11.95258l0.66571,2.03907l-12.32425,11.96916l-0.66571,-2.05564l0,-0.00001zm-0.88762,-2.6856l12.32425,-11.96916l0.66571,1.9396l-12.32425,12.06862l-0.66571,-2.03907l0,0.00001zm39.05523,25.31427l-12.30718,-11.95258l0.44381,-1.50858l12.32425,11.95258l-0.46088,1.50858zm7.33993,-22.0816l-12.32425,-11.96916l0.54623,-1.39253l12.32425,11.95258l-0.54623,1.40911zm-0.90469,2.80164l-12.30718,-11.96916l0.44381,-1.50858l12.42666,11.96916l-0.5633,1.50858l0.00001,0zm-9.20051,27.46938l-12.32425,-11.95258l0.44381,-1.40911l12.44373,11.96916l-0.5633,1.39253l0.00001,0zm8.31289,-24.78378l-12.30718,-11.95258l0.44381,-1.39253l12.32425,11.95258l-0.46088,1.39253zm3.66996,-10.97449l-12.32425,-11.96916l0.44381,-1.39253l12.32425,11.95258l-0.44381,1.40911zm-0.88762,2.78507l-12.32425,-11.95258l0.44381,-1.50858l12.32425,11.95258l-0.44381,1.50858zm-3.65289,11.00764l-12.42666,-11.96916l0.54623,-1.50858l12.30718,11.96916l-0.42674,1.50858l-0.00001,0zm-5.54762,16.47831l-12.32425,-11.95258l0.44381,-1.40911l12.30718,11.96916l-0.42674,1.39253zm4.54051,-13.69324l-12.32425,-12.05204l0.5633,-1.40911l12.30718,11.95258l-0.54623,1.50858l0,-0.00001zm-5.54762,16.49489l-12.32425,-11.96916l0.5633,-1.50858l12.30718,11.96916l-0.54623,1.50858zm2.76527,-8.30547l-12.30718,-11.95258l0.54623,-1.50858l12.32425,12.06862l-0.5633,1.39253l0,0.00001zm1.89473,-5.48724l-12.32425,-11.96916l0.44381,-1.50858l12.32425,12.06862l-0.44381,1.40911l0,0.00001zm-0.88762,2.80164l-12.32425,-11.96916l0.44381,-1.50858l12.32425,11.96916l-0.44381,1.50858zm81.33662,24.56827l-2.78234,0l9.42242,-9.16751l0,2.70218l-6.64007,6.46533l-0.00001,0zm3.75531,0l-2.76527,0l5.65004,-5.48724l0,2.6856l-2.88476,2.80164l-0.00001,0zm-7.52769,0l-2.78234,0l13.1948,-12.8312l0,2.70218l-10.41245,10.12902l-0.00001,0zm8.97861,-15.08578l1.43385,0l0,1.29307l-14.2019,13.79271l-2.76527,0l15.53333,-15.08578l-0.00001,0zm1.43385,15.08578l-1.87766,0l1.87766,-1.82356l0,1.82356zm-31.04959,-9.05147l0,-2.6856l3.3115,-3.34871l2.78234,0l-6.09385,6.03431l0.00001,0zm23.5219,-6.03431l1.43385,0l-15.53333,15.08578l-2.76527,0l15.53333,-15.08578l-1.00711,0l-15.53333,15.08578l-2.78234,0l15.53333,-15.08578l-0.99004,0l-15.53333,15.08578l-1.87766,0l0,-0.86204l14.62864,-14.22373l-0.99004,0l-13.63861,13.26222l0,-2.70218l10.87333,-10.56004l-1.00711,0l-9.86623,9.59853l0,-2.70218l7.08388,-6.89636l0.2219,0l-2.54337,-8.40493l-0.88762,0.86204l-2.76527,0l2.98718,-2.91769l-0.2219,-0.746l-3.77238,3.66369l-2.78234,0l5.88901,-5.70276l-0.2219,-0.76258l-6.65714,6.46533l-2.78234,0l8.77377,-8.52098l-0.2219,-0.746l-9.5419,9.26698l-2.76527,0l11.74388,-11.32262l-0.20484,-0.746l-12.42666,12.06862l-2.78234,0l14.52623,-14.10769l-0.2219,-0.76258l-15.31143,14.87027l-2.76527,0l15.53333,-15.08578l2.44095,0l-6.99853,-22.62867l-0.64864,0l-7.44234,23.92173l1.33143,-1.29307l2.76527,0l-5.32571,5.17227l-0.32432,1.39253l6.65714,-6.5648l2.76527,0l-10.65143,10.34453l-0.44381,1.39253l12.10234,-11.73707l2.78234,0l-15.53333,15.08578l-0.34139,0l-2.32146,7.54289l1.21194,0l-0.76813,0.64653l0.54623,0.54707l0.88762,-0.87862l-0.32432,-0.31498l3.3115,0l-0.64864,0.64653l0.54623,0.54707l0.88762,-0.87862l-0.34139,-0.31498l2.01421,0l0,1.9396l-0.34139,-0.33156l-0.88762,0.86204l0.5633,0.54707l0.66571,-0.76258l0,3.34871l-0.34139,-0.33156l-0.88762,0.86204l0.5633,0.4476l0.66571,-0.66311l0,3.34871l-0.34139,-0.33156l-0.88762,0.86204l0.5633,0.43102l0.66571,-0.62996l0,3.23267l-0.34139,-0.23209l-0.88762,0.86204l0.5633,0.43102l0.66571,-0.62996l0,1.82356l-1.89473,0l0.2219,-0.21551l-0.5633,-0.43102l-0.64864,0.64653l-2.78234,0l0.2219,-0.21551l-0.54623,-0.43102l-0.68278,0.64653l-2.76527,0l0.2219,-0.21551l-0.44381,-0.43102l-0.7852,0.64653l-2.76527,0l0.2219,-0.21551l-0.44381,-0.43102l-0.76813,0.64653l-2.78234,0l0.2219,-0.21551l-0.44381,-0.43102l-0.76813,0.64653l-2.78234,0l0.2219,-0.21551l-0.44381,-0.43102l-0.66571,0.64653l-2.78234,0l0.2219,-0.21551l-0.54623,-0.43102l-0.66571,0.64653l-2.76527,0l0.2219,-0.21551l-0.5633,-0.43102l-0.66571,0.64653l-1.89473,0l0,-1.50858l0.34139,0.31498l0.88762,-0.86204l-0.54623,-0.43102l-0.68278,0.66311l0,-3.34871l0.34139,0.31498l0.88762,-0.86204l-0.54623,-0.43102l-0.68278,0.66311l0,-3.34871l0.34139,0.33156l0.88762,-0.87862l-0.54623,-0.43102l-0.68278,0.76258l0,-3.44818l0.34139,0.43102l0.88762,-0.86204l-0.54623,-0.54707l-0.68278,0.76258l0,-2.37062l2.44095,0l-0.76813,0.64653l0.54623,0.54707l0.90469,-0.87862l-0.34139,-0.31498l3.32857,0l-0.66571,0.64653l0.5633,0.54707l0.87055,-0.87862l-0.32432,-0.31498l1.00711,0l18.62293,-60.34311l23.76088,0l18.64,60.34311l-0.00006,0.00004zm-66.36658,12.06862l0.90469,-0.86204l-0.5633,-0.43102l-0.88762,0.86204l0.54623,0.43102zm0,-3.66369l0.90469,-0.86204l-0.5633,-0.43102l-0.88762,0.86204l0.54623,0.43102zm0,-3.66369l0.90469,-0.76258l-0.5633,-0.53049l-0.88762,0.86204l0.54623,0.43102l0,0.00001zm1.89473,9.15093l0.88762,-0.86204l-0.54623,-0.43102l-0.90469,0.86204l0.5633,0.43102zm0,-3.66369l0.88762,-0.86204l-0.54623,-0.43102l-0.90469,0.86204l0.5633,0.43102zm0,-3.64711l0.88762,-0.87862l-0.54623,-0.43102l-0.90469,0.86204l0.5633,0.4476zm0,-3.56422l0.88762,-0.86204l-0.54623,-0.54707l-0.90469,0.86204l0.5633,0.54707zm1.89473,9.05147l0.87055,-0.86204l-0.54623,-0.43102l-0.88762,0.86204l0.5633,0.43102zm0,-3.66369l0.87055,-0.86204l-0.54623,-0.43102l-0.88762,0.86204l0.5633,0.43102zm0,-3.66369l0.87055,-0.76258l-0.54623,-0.53049l-0.88762,0.86204l0.5633,0.43102l0,0.00001zm1.87766,9.15093l0.88762,-0.86204l-0.5633,-0.43102l-0.87055,0.86204l0.54623,0.43102zm0,-3.66369l0.88762,-0.86204l-0.5633,-0.43102l-0.87055,0.86204l0.54623,0.43102zm0,-3.64711l0.88762,-0.87862l-0.5633,-0.43102l-0.87055,0.86204l0.54623,0.4476zm0,-3.56422l0.88762,-0.86204l-0.5633,-0.54707l-0.87055,0.86204l0.54623,0.54707zm1.89473,9.05147l0.76813,-0.86204l-0.44381,-0.43102l-0.88762,0.86204l0.5633,0.43102zm0,-3.66369l0.76813,-0.86204l-0.44381,-0.43102l-0.88762,0.86204l0.5633,0.43102zm0,-3.66369l0.76813,-0.76258l-0.44381,-0.53049l-0.88762,0.86204l0.5633,0.43102l0,0.00001zm0,-3.54764l0.76813,-0.87862l-0.2219,-0.31498l-0.44381,0l-0.66571,0.64653l0.5633,0.54707l-0.00001,0zm1.77524,12.69858l0.87055,-0.86204l-0.44381,-0.43102l-0.87055,0.86204l0.44381,0.43102zm0,-3.66369l0.87055,-0.86204l-0.44381,-0.43102l-0.87055,0.86204l0.44381,0.43102zm0,-3.64711l0.87055,-0.87862l-0.44381,-0.43102l-0.87055,0.86204l0.44381,0.4476zm0,-3.56422l0.87055,-0.86204l-0.44381,-0.54707l-0.87055,0.86204l0.44381,0.54707zm1.87766,9.05147l0.88762,-0.86204l-0.44381,-0.43102l-0.88762,0.86204l0.44381,0.43102zm0,-3.66369l0.88762,-0.86204l-0.44381,-0.43102l-0.88762,0.86204l0.44381,0.43102zm0,-3.66369l0.88762,-0.76258l-0.44381,-0.53049l-0.88762,0.86204l0.44381,0.43102l0,0.00001zm0,-3.54764l0.88762,-0.87862l-0.2219,-0.31498l-0.44381,0l-0.66571,0.64653l0.44381,0.54707l-0.00001,0zm15.41384,2.25458l-0.87055,0.86204l0.54623,0.43102l0.88762,-0.76258l-0.5633,-0.53049l0,0.00001zm0,3.66369l-0.87055,0.86204l0.54623,0.43102l0.88762,-0.86204l-0.5633,-0.43102zm0,3.66369l-0.87055,0.86204l0.54623,0.43102l0.88762,-0.86204l-0.5633,-0.43102zm-1.87766,-9.16751l-0.88762,0.86204l0.5633,0.54707l0.87055,-0.86204l-0.54623,-0.54707zm0,3.66369l-0.88762,0.86204l0.5633,0.4476l0.87055,-0.87862l-0.54623,-0.43102zm0,3.66369l-0.88762,0.86204l0.5633,0.43102l0.87055,-0.86204l-0.54623,-0.43102zm0,3.66369l-0.88762,0.86204l0.5633,0.43102l0.87055,-0.86204l-0.54623,-0.43102zm-11.64146,1.29307l0.87055,-0.86204l-0.42674,-0.43102l-0.90469,0.86204l0.46088,0.43102zm0,-3.66369l0.87055,-0.86204l-0.42674,-0.43102l-0.90469,0.86204l0.46088,0.43102zm0,-3.64711l0.87055,-0.87862l-0.42674,-0.43102l-0.90469,0.86204l0.46088,0.4476zm0,-3.56422l0.87055,-0.86204l-0.42674,-0.54707l-0.90469,0.86204l0.46088,0.54707zm1.87766,9.05147l0.88762,-0.86204l-0.44381,-0.43102l-0.88762,0.86204l0.44381,0.43102zm0,-3.66369l0.88762,-0.86204l-0.44381,-0.43102l-0.88762,0.86204l0.44381,0.43102zm0,-3.66369l0.88762,-0.76258l-0.44381,-0.53049l-0.88762,0.86204l0.44381,0.43102l0,0.00001zm0,-3.54764l0.88762,-0.87862l-0.2219,-0.31498l-0.44381,0l-0.66571,0.64653l0.44381,0.54707l-0.00001,0zm1.87766,12.69858l0.90469,-0.86204l-0.44381,-0.43102l-0.88762,0.86204l0.42674,0.43102zm0,-3.66369l0.90469,-0.86204l-0.44381,-0.43102l-0.88762,0.86204l0.42674,0.43102zm0,-3.64711l0.90469,-0.87862l-0.44381,-0.43102l-0.88762,0.86204l0.42674,0.4476zm0,-3.56422l0.90469,-0.86204l-0.44381,-0.54707l-0.88762,0.86204l0.42674,0.54707zm1.89473,9.05147l0.88762,-0.86204l-0.44381,-0.43102l-0.88762,0.86204l0.44381,0.43102zm0,-3.66369l0.88762,-0.86204l-0.44381,-0.43102l-0.88762,0.86204l0.44381,0.43102zm0,-3.66369l0.88762,-0.76258l-0.44381,-0.53049l-0.88762,0.86204l0.44381,0.43102l0,0.00001zm0,-3.54764l0.88762,-0.87862l-0.34139,-0.31498l-0.32432,0l-0.66571,0.64653l0.44381,0.54707l-0.00001,0zm1.89473,12.69858l0.88762,-0.86204l-0.5633,-0.43102l-0.76813,0.86204l0.44381,0.43102zm0,-3.66369l0.88762,-0.86204l-0.5633,-0.43102l-0.76813,0.86204l0.44381,0.43102zm0,-3.64711l0.88762,-0.87862l-0.5633,-0.43102l-0.76813,0.86204l0.44381,0.4476zm2.21905,-3.1332l-0.88762,0.86204l0.54623,0.43102l0.88762,-0.76258l-0.54623,-0.53049l0,0.00001zm0,3.66369l-0.88762,0.86204l0.54623,0.43102l0.88762,-0.86204l-0.54623,-0.43102zm0,3.66369l-0.88762,0.86204l0.54623,0.43102l0.88762,-0.86204l-0.54623,-0.43102zm-1.33143,-8.62044l-0.5633,-0.54707l-0.76813,0.86204l0.44381,0.54707l0.88762,-0.86204zm21.30285,0.21551l0,-2.37062l2.44095,0l-2.44095,2.37062zm25.96285,-2.37062l2.66286,0l-15.53333,15.08578l-2.66286,0l15.53333,-15.08578z"
                              id="svg_40"/>
                    </g>
                </g>
            </g>
            <path fill="url(#watermark)" opacity="NaN"
                  d="m7.562,24.812c-3.313,0 -6,-2.687 -6,-6l0,0c0.002,-2.659 1.734,-4.899 4.127,-5.684l0,0c0.083,-2.26 1.937,-4.064 4.216,-4.066l0,0c0.73,0 1.415,0.19 2.01,0.517l0,0c1.266,-2.105 3.57,-3.516 6.208,-3.517l0,0c3.947,0.002 7.157,3.155 7.248,7.079l0,0c2.362,0.804 4.062,3.034 4.064,5.671l0,0c0,3.313 -2.687,6 -6,6l0,0l-15.873,0l0,0zm16.601,-9.925c-0.511,-0.095 -0.864,-0.562 -0.815,-1.079l0,0c0.017,-0.171 0.027,-0.336 0.027,-0.497l0,0c-0.007,-2.899 -2.352,-5.245 -5.251,-5.249l0,0c-2.249,-0.002 -4.162,1.418 -4.911,3.41l0,0c-0.122,0.323 -0.406,0.564 -0.748,0.63l0,0c-0.34,0.066 -0.694,-0.052 -0.927,-0.309l0,0c-0.416,-0.453 -0.986,-0.731 -1.633,-0.731l0,0c-1.225,0.002 -2.216,0.993 -2.22,2.218l0,0c0,0.136 0.017,0.276 0.045,0.424l0,0c0.049,0.266 -0.008,0.54 -0.163,0.762l0,0c-0.155,0.223 -0.392,0.371 -0.657,0.414l0,0c-1.9,0.313 -3.352,1.949 -3.35,3.931l0,0c0.004,2.209 1.792,3.995 4.001,4.001l0,0l15.874,0c2.209,-0.006 3.994,-1.792 3.999,-4.001l0,0c0.004,-1.957 -1.41,-3.58 -3.271,-3.924l0,0"
                  id="svg_74"
                  transform="translate(174.90566037735846,48.9622641509434) scale(0.005) translate(-174.90566037735846,-48.9622641509434)"/>
            <path fill="url(#watermark)" opacity="NaN"
                  d="m7.562,24.812c-3.313,0 -6,-2.687 -6,-6l0,0c0.002,-2.659 1.734,-4.899 4.127,-5.684l0,0c0.083,-2.26 1.937,-4.064 4.216,-4.066l0,0c0.73,0 1.415,0.19 2.01,0.517l0,0c1.266,-2.105 3.57,-3.516 6.208,-3.517l0,0c3.947,0.002 7.157,3.155 7.248,7.079l0,0c2.362,0.804 4.062,3.034 4.064,5.671l0,0c0,3.313 -2.687,6 -6,6l0,0l-15.873,0l0,0zm16.601,-9.925c-0.511,-0.095 -0.864,-0.562 -0.815,-1.079l0,0c0.017,-0.171 0.027,-0.336 0.027,-0.497l0,0c-0.007,-2.899 -2.352,-5.245 -5.251,-5.249l0,0c-2.249,-0.002 -4.162,1.418 -4.911,3.41l0,0c-0.122,0.323 -0.406,0.564 -0.748,0.63l0,0c-0.34,0.066 -0.694,-0.052 -0.927,-0.309l0,0c-0.416,-0.453 -0.986,-0.731 -1.633,-0.731l0,0c-1.225,0.002 -2.216,0.993 -2.22,2.218l0,0c0,0.136 0.017,0.276 0.045,0.424l0,0c0.049,0.266 -0.008,0.54 -0.163,0.762l0,0c-0.155,0.223 -0.392,0.371 -0.657,0.414l0,0c-1.9,0.313 -3.352,1.949 -3.35,3.931l0,0c0.004,2.209 1.792,3.995 4.001,4.001l0,0l15.874,0c2.209,-0.006 3.994,-1.792 3.999,-4.001l0,0c0.004,-1.957 -1.41,-3.58 -3.271,-3.924l0,0"
                  id="svg_75"
                  transform="translate(179.81132075471697,49.33962264150943) scale(0.005) translate(-179.81132075471697,-49.33962264150943)"/>
            <path fill="url(#watermark)" opacity="NaN"
                  d="m7.562,24.812c-3.313,0 -6,-2.687 -6,-6l0,0c0.002,-2.659 1.734,-4.899 4.127,-5.684l0,0c0.083,-2.26 1.937,-4.064 4.216,-4.066l0,0c0.73,0 1.415,0.19 2.01,0.517l0,0c1.266,-2.105 3.57,-3.516 6.208,-3.517l0,0c3.947,0.002 7.157,3.155 7.248,7.079l0,0c2.362,0.804 4.062,3.034 4.064,5.671l0,0c0,3.313 -2.687,6 -6,6l0,0l-15.873,0l0,0zm16.601,-9.925c-0.511,-0.095 -0.864,-0.562 -0.815,-1.079l0,0c0.017,-0.171 0.027,-0.336 0.027,-0.497l0,0c-0.007,-2.899 -2.352,-5.245 -5.251,-5.249l0,0c-2.249,-0.002 -4.162,1.418 -4.911,3.41l0,0c-0.122,0.323 -0.406,0.564 -0.748,0.63l0,0c-0.34,0.066 -0.694,-0.052 -0.927,-0.309l0,0c-0.416,-0.453 -0.986,-0.731 -1.633,-0.731l0,0c-1.225,0.002 -2.216,0.993 -2.22,2.218l0,0c0,0.136 0.017,0.276 0.045,0.424l0,0c0.049,0.266 -0.008,0.54 -0.163,0.762l0,0c-0.155,0.223 -0.392,0.371 -0.657,0.414l0,0c-1.9,0.313 -3.352,1.949 -3.35,3.931l0,0c0.004,2.209 1.792,3.995 4.001,4.001l0,0l15.874,0c2.209,-0.006 3.994,-1.792 3.999,-4.001l0,0c0.004,-1.957 -1.41,-3.58 -3.271,-3.924l0,0"
                  id="svg_76"
                  transform="translate(-5.52321 0) translate(-4.06974 2.03487) translate(-5.23252 2.32556) translate(-2.03487 1.74417) translate(1.74417 4.36043) translate(50.2903 -0.872086) translate(52.6159 70.3483) translate(-0.487804 -0.487804) translate(-3.39623 0.377358) translate(0.377358 -0.377358) translate(-3.77358 5.28302) translate(-44.1509 2.64151) translate(-115.094 42.6415) translate(-1.50943 2.26415) translate(-1.50943 1.50943) translate(-1.13208 1.88679) translate(179.811 49.3396) scale(0.005 0.005) translate(-179.811 -49.3396)"/>
        </g>
        <g stroke="null" id="svg_1">
            <path stroke="null" fill="#ffffff" id="svg_90"
                  d="m162.11599,75.55974c0.33446,0.0608 0.65513,-0.16379 0.71549,-0.50242l0.28905,-1.61989l0.48293,1.65561c0.09329,0.31986 0.36189,0.49179 0.67796,0.50732c0.27813,-0.0015 0.59387,-0.23481 0.67221,-0.51372l0.4661,-1.6537l0.3081,1.63061c0.0638,0.33788 0.38636,0.55965 0.7205,0.49495c0.33405,-0.06454 0.55314,-0.39087 0.48925,-0.72876l-0.72674,-3.84628c-0.13993,-0.69487 -1.17468,-0.72934 -1.36585,-0.05623l-0.57613,2.04424l-0.59806,-2.05038c-0.19881,-0.69254 -1.23496,-0.61289 -1.36676,0.07716l-0.68477,3.83781c-0.06036,0.33863 0.16202,0.66264 0.49673,0.72369z"/>
            <path stroke="null" fill="#ffffff" id="svg_91"
                  d="m154.53018,75.60044c0.6525,0 1.27815,-0.27102 1.69933,-0.77909c0.21843,-0.26371 0.18419,-0.65658 -0.07662,-0.87751c-0.26064,-0.22094 -0.64905,-0.18638 -0.86757,0.07741c-0.76164,0.81265 -2.12281,0.03397 -2.0875,-1.01415c-0.01388,-1.0629 1.21476,-1.72347 2.07666,-1.1178c0.28215,0.19278 0.66474,0.11761 0.85517,-0.16745c0.19035,-0.28506 0.11628,-0.67228 -0.16555,-0.86489c-1.67133,-1.16423 -4.01553,0.09585 -3.99803,2.15014c0.00008,1.42994 1.1503,2.59334 2.56411,2.59334z"/>
            <path stroke="null" fill="#ffffff" id="svg_93"
                  d="m157.93812,75.60044c0.34021,0 0.61588,-0.27891 0.61588,-0.62294l0,-0.77029l1.02835,1.18184c0.28215,0.26172 0.57186,0.28041 0.86921,0.05606c0.2553,-0.22725 0.2801,-0.62095 0.05543,-0.87918l-0.86404,-0.99297c1.66304,-0.72809 1.15966,-3.13339 -0.66819,-3.15938l-1.03533,0c-0.34062,-0.00075 -0.61719,0.27841 -0.61719,0.62294l0,3.94096c0,0.34403 0.27575,0.62294 0.61588,0.62294zm1.03665,-3.94105c0.60052,0.03372 0.60011,0.76896 0,0.8026c-0.10035,0 -0.25563,0.0005 -0.41559,0.00125c-0.00107,-0.26795 -0.00172,-0.53589 -0.00197,-0.80384l0.41757,0z"/>
            <path stroke="null" fill="#ffffff" id="svg_94"
                  d="m175.76911,70.01159l0,-2.81859c-0.02825,-0.82485 -1.20384,-0.82419 -1.23176,0l0,2.81859c0.02825,0.82477 1.20384,0.82419 1.23176,0z"/>
            <path stroke="null" fill="#ffffff" id="svg_95"
                  d="m182.92873,70.01159l0,-2.81859c-0.02825,-0.82485 -1.20384,-0.82419 -1.23176,0l0,2.81859c0.02817,0.82477 1.20375,0.82419 1.23176,0z"/>
            <path stroke="null" fill="#ffffff" id="svg_96"
                  d="m180.15474,69.25401l0,-1.30352c-0.07834,-1.90811 -2.76579,-1.90669 -2.84339,0l0,1.30352c0.07834,1.90827 2.76579,1.90669 2.84339,0zm-1.23176,0c-0.00657,0.25341 -0.37339,0.25333 -0.37987,0l0,-1.30352c0.00657,-0.25341 0.3733,-0.25316 0.37987,0l0,1.30352z"/>
            <path stroke="null" fill="#ffffff" id="svg_97"
                  d="m179.34892,65.22384l0,-2.81859c-0.02825,-0.82485 -1.20384,-0.82419 -1.23176,0l0,2.81859c0.02825,0.82477 1.20375,0.82419 1.23176,0z"/>
            <path stroke="null" fill="#ffffff" id="svg_98"
                  d="m176.57501,63.16274c-0.07826,-1.90819 -2.76579,-1.90678 -2.84339,0l0,1.30352c0.07834,1.90819 2.76579,1.90661 2.84339,0l0,-1.30352zm-1.23176,1.30352c-0.00657,0.25333 -0.37339,0.25325 -0.37987,0l0,-1.30352c0.00657,-0.25349 0.37339,-0.25325 0.37987,0l0,1.30352z"/>
            <path stroke="null" fill="#ffffff" id="svg_99"
                  d="m183.73455,63.16274c-0.07826,-1.90819 -2.76579,-1.90678 -2.84339,0l0,1.30352c0.07834,1.90819 2.76579,1.90661 2.84339,0l0,-1.30352zm-1.23176,1.30352c-0.00657,0.25333 -0.37339,0.25325 -0.37987,0l0,-1.30352c0.00657,-0.25349 0.37339,-0.25325 0.37987,0l0,1.30352z"/>
            <path stroke="null" fill="#ffffff" id="svg_100"
                  d="m178.11716,71.98074l0,2.81859c0.02825,0.82485 1.20384,0.82419 1.23176,0l0,-2.81859c-0.02825,-0.82485 -1.20384,-0.82419 -1.23176,0z"/>
            <path stroke="null" fill="#ffffff" id="svg_101"
                  d="m173.73162,72.73832l0,1.30352c0.07834,1.90819 2.76579,1.90661 2.84339,0l0,-1.30352c-0.07834,-1.90819 -2.76579,-1.90678 -2.84339,0zm1.23176,0c0.00657,-0.25349 0.37339,-0.25325 0.37987,0l0,1.30352c-0.00657,0.25333 -0.37339,0.25325 -0.37987,0l0,-1.30352z"/>
            <path stroke="null" fill="#ffffff" id="svg_102"
                  d="m180.89116,72.73832l0,1.30352c0.07834,1.90819 2.76579,1.90661 2.84339,0l0,-1.30352c-0.07826,-1.90819 -2.76579,-1.90678 -2.84339,0zm1.23176,0c0.00657,-0.25349 0.37339,-0.25325 0.37987,0l0,1.30352c-0.00657,0.25333 -0.37339,0.25325 -0.37987,0l0,-1.30352z"/>
            <path stroke="null" fill="#ffffff" id="svg_103"
                  d="m189.86278,86.40462c-0.00033,-0.00066 -0.00066,-0.00125 -0.00099,-0.00191c-1.41471,-2.92184 -4.99847,-4.33956 -7.99517,-3.20972l0,-5.08119l2.60245,0c1.54824,0 2.80791,-1.27404 2.80791,-2.84011l0,-4.87463c0,-0.80542 -1.23176,-0.80542 -1.23176,0l0,4.87463c0,0.87909 -0.70703,1.59423 -1.57616,1.59423l-5.27923,0c-0.13245,0 -0.26146,0.04327 -0.3678,0.12326l-2.61165,1.96633l0,-1.46665c0,-0.34403 -0.27567,-0.62294 -0.61588,-0.62294l-2.59761,0c-0.86913,0 -1.57624,-0.71513 -1.57624,-1.59423l0,-7.68757c0.00008,-0.00432 0.00008,-0.00856 0,-0.01287l0,-5.88495c0,-0.87909 0.70711,-1.59423 1.57624,-1.59423l11.47209,0c0.86913,0 1.57616,0.71513 1.57616,1.59423l0,5.39092c0,0.80542 1.23176,0.80542 1.23176,0l0,-5.39092c0,-1.56607 -1.25968,-2.84011 -2.80791,-2.84011l-11.472,0c-1.54832,0 -2.80799,1.27404 -2.80799,2.84011l0,5.26841l-18.10362,0c-1.96211,0 -3.5583,1.61449 -3.5583,3.5991l0,16.22782c0,1.71749 1.38137,3.1147 3.07939,3.1147l1.43705,0c0.79629,0 0.79629,-1.24588 0,-1.24588l-1.43705,0c-1.01874,0 -1.84763,-0.83831 -1.84763,-1.86882l0,-2.12065l29.77845,0c-1.05939,1.03591 -1.77315,2.43121 -1.94708,3.98947l-21.07798,0c-0.79629,0 -0.79629,1.24588 0,1.24588l5.09619,0l-1.13141,4.83775l-2.17799,0c-0.34021,0 -0.61588,0.27891 -0.61588,0.62294s0.27567,0.62294 0.61588,0.62294l13.79567,0c0.34021,0 0.61588,-0.27891 0.61588,-0.62294s-0.27567,-0.62294 -0.61588,-0.62294l-2.17799,0l-1.13141,-4.83775l8.78193,0c0.06397,0.87054 0.29529,1.70528 0.68987,2.48761c1.11909,2.21816 3.34258,3.59602 5.8028,3.59602c4.78997,0.0603 8.03097,-5.29258 5.80289,-9.57533zm-8.1057,4.17536c-0.00025,-0.0005 -0.00057,-0.00108 -0.00082,-0.00158c-0.8835,-1.70021 0.4041,-3.82186 2.30371,-3.7981c0.97596,0 1.85839,0.54727 2.30297,1.42836c0.88514,1.70046 -0.40254,3.82344 -2.30297,3.79968c-0.97596,0 -1.85839,-0.54736 -2.30289,-1.42836zm6.69681,-4.14811l-1.31716,0.67851c-0.59149,-0.81813 -1.47277,-1.36457 -2.46088,-1.5262l0,-1.49398c1.54208,0.18057 2.91778,1.03325 3.77804,2.34167zm-38.69505,-15.87806c0,-1.29762 1.04371,-2.35322 2.32654,-2.35322l18.10362,0l0,7.07111c0,1.56607 1.25968,2.84011 2.80799,2.84011l1.98173,0l0,2.08394c0,0.50151 0.58122,0.80268 0.98368,0.49968l3.43159,-2.58362l1.24087,0l0,5.30329l-30.87603,0l0,-12.86129zm33.68525,13.53681l0,1.49406c-2.22718,0.32127 -3.75571,2.78437 -3.02027,4.9836l-1.3119,0.67576l-0.0055,0.00282c-1.21747,-3.17898 1.03246,-6.82268 4.33767,-7.15625zm-14.79323,10.64346l-6.9081,0l1.13133,-4.83775l4.64536,0l1.13141,4.83775zm15.40911,0c-1.78736,0 -3.42059,-0.89695 -4.39392,-2.37739l1.31724,-0.67851c2.61034,3.4672 7.94335,0.73025 6.71291,-3.45781l1.0387,-0.53506l0.27862,-0.14353c1.29778,3.40607 -1.33793,7.24404 -4.95355,7.19229z"/>
            <path stroke="null" fill="#ffffff" id="svg_104"
                  d="m151.92222,65.0348c0.34021,0 0.61588,-0.27891 0.61588,-0.62294l0,-3.2304l2.41408,0l0,3.2304c0,0.80542 1.23176,0.80542 1.23176,0l0,-3.85334c0,-0.34403 -0.27567,-0.62294 -0.61588,-0.62294l-3.64583,0c-0.34021,0 -0.61588,0.27891 -0.61588,0.62294l0,3.85334c0,0.34403 0.27567,0.62294 0.61588,0.62294z"/>
            <path stroke="null" fill="#ffffff" id="svg_105"
                  d="m163.07011,65.0348c0.34021,0 0.61588,-0.27891 0.61588,-0.62294l0,-5.58752l2.41408,0l0,5.58744c0,0.80542 1.23176,0.80542 1.23176,0l0,-6.21037c0,-0.34403 -0.27567,-0.62294 -0.61588,-0.62294l-3.64583,0c-0.34021,0 -0.61588,0.27891 -0.61588,0.62294l0,6.21037c0,0.34411 0.27567,0.62302 0.61588,0.62302z"/>
            <path stroke="null" fill="#ffffff" id="svg_106"
                  d="m157.49617,65.0348c0.34021,0 0.61588,-0.27891 0.61588,-0.62294l0,-9.71204l2.41408,0l0,9.71196c0,0.80542 1.23176,0.80542 1.23176,0l0,-10.3349c0,-0.34403 -0.27567,-0.62294 -0.61588,-0.62294l-3.64583,0c-0.34021,0 -0.61588,0.27891 -0.61588,0.62294l0,10.3349c0,0.34411 0.27567,0.62302 0.61588,0.62302z"/>
            <path stroke="null" fill="#ffffff" id="svg_107"
                  d="m167.01362,77.1381l-14.41229,0c-0.8155,0.02857 -0.81485,1.21764 0,1.24588l14.41229,0c0.8155,-0.02857 0.81485,-1.21756 0,-1.24588z"/>
            <path stroke="null" fill="#ffffff" id="svg_108"
                  d="m160.42315,79.83825l-7.82182,0c-0.8155,0.02857 -0.81485,1.21764 0,1.24588l7.82182,0c0.8155,-0.02857 0.81493,-1.21764 0,-1.24588z"/>
        </g>
    </g>
</svg>